0.011065,0.016598,0.0069156,0.0055325,0.0069156,0.012448,0.0013831,0.0082988,0.023513,0.013831,0.037344,0.011065,0.0096819,0.0055325,0.031812,0.029046,0.0041494,0.012448,0.0041494,0.0069156,0.011065,0.013831,0.0082988,0.011065,0.0013831,0.0013831,0.0082988,0.015214,0.0013831,0.031812,0,0.0055325,0.0082988,0.0069156,0.0027663,0.0027663,0.0055325,0.0027663,0.026279,0.016598,0.0096819,0,0.0013831,0.013831,0.0013831,0.0096819,0,0.0082988,0.0041494,0.0027663,0.013831,0.0013831,0.0069156,0.033195,0.016598,0.0013831,0.0055325,0,0.012448,0.012448,0.0082988,0.012448,0.013831,0.0027663,0.0055325,0.0069156,0.026279,0.0055325,0.0027663,0.0013831,0.02213,0.013831,0.016598,0.0027663,0.0082988,0.0069156,0.0013831,0.013831,0.023513,0.0082988,0.011065,0.0027663,0.017981,0.0069156,0,0,0.0069156,0.0096819,0.015214,0.0069156,0.0027663,0.011065,0.027663,0.0041494,0.0069156,0.0055325,0.033195,0.0069156,0.02213,0.0041494
0.014052,0.025761,0.0023419,0.010539,0.0023419,0.016393,0.0070258,0.0035129,0.022248,0.001171,0.001171,0.017564,0.019906,0.0046838,0.052693,0.015222,0.0046838,0.012881,0,0.0070258,0.0046838,0.023419,0,0.010539,0.0035129,0.0058548,0.02459,0.014052,0.0046838,0.040984,0.016393,0.0035129,0.016393,0.0070258,0.0070258,0.001171,0.021077,0.0035129,0.015222,0.0035129,0.0023419,0,0.0081967,0.0058548,0,0.019906,0,0.010539,0.0035129,0.001171,0.0023419,0.0046838,0.030445,0.0081967,0.0023419,0.0023419,0.0035129,0,0.029274,0.014052,0.02459,0,0.014052,0.001171,0.01171,0.0046838,0.01171,0.010539,0.0058548,0.01171,0.02459,0.032787,0.018735,0.001171,0.018735,0.0035129,0,0.001171,0.016393,0.018735,0.01171,0.017564,0.025761,0,0.0058548,0,0.0046838,0.0035129,0.0023419,0,0.0070258,0.0023419,0.023419,0.0023419,0,0.0058548,0.0093677,0.01171,0.0081967,0.0093677
0.018762,0.0018762,0.0037523,0.028143,0.0037523,0.018762,0.0075047,0.02439,0.0037523,0,0,0.033771,0.028143,0.018762,0.011257,0.018762,0.0018762,0.016886,0,0.0075047,0.0037523,0.067542,0.0018762,0.0056285,0.0037523,0.0056285,0.018762,0.016886,0.013133,0.020638,0.0056285,0,0.0037523,0.0018762,0.030019,0,0.0056285,0.0093809,0.0056285,0.0037523,0.0018762,0.0018762,0.0093809,0.0056285,0.0037523,0.011257,0,0.016886,0.0056285,0.0018762,0.0075047,0,0.015009,0.0075047,0.0056285,0,0.0018762,0,0.015009,0.022514,0.0093809,0.0018762,0.0075047,0.0018762,0.026266,0.0018762,0.011257,0.0037523,0.0075047,0.037523,0.0075047,0.037523,0.015009,0.0075047,0.0056285,0.0056285,0.0018762,0.0037523,0.022514,0.0056285,0.0018762,0.037523,0.0056285,0.011257,0,0,0.016886,0.0018762,0,0.0037523,0.0056285,0.0093809,0.020638,0.0037523,0,0.016886,0.0093809,0.016886,0.0075047,0.0056285
0.013614,0.009901,0,0.0024752,0.0061881,0.014851,0.013614,0.011139,0.012376,0.0061881,0.0061881,0.017327,0.013614,0.009901,0.030941,0.019802,0.0061881,0.0086634,0.0074257,0.0012376,0.0049505,0.018564,0.009901,0.016089,0.0012376,0.0037129,0.018564,0.014851,0.0049505,0.030941,0.0049505,0.0012376,0.0037129,0.0074257,0.016089,0.0012376,0.009901,0.0037129,0.019802,0.009901,0.011139,0,0.0086634,0.065594,0,0.009901,0,0.013614,0.0024752,0.0012376,0.018564,0.0012376,0.028465,0.0061881,0.0037129,0.0024752,0.0037129,0,0.024752,0.011139,0.014851,0.0012376,0.0074257,0,0.012376,0.0024752,0.013614,0.011139,0.0074257,0.009901,0.02104,0.014851,0.018564,0.011139,0.013614,0.009901,0,0.0049505,0.02104,0.009901,0.017327,0.0037129,0.014851,0.0012376,0.0024752,0,0.012376,0.016089,0,0,0.0024752,0.0024752,0.033416,0.0086634,0.0012376,0.0049505,0.013614,0.017327,0.012376,0.0037129
0.031667,0.0083333,0.0066667,0.0083333,0.0033333,0.023333,0.0066667,0.025,0.0066667,0.0066667,0.0033333,0.018333,0.016667,0.011667,0.018333,0.02,0.0033333,0.016667,0.0016667,0.013333,0.0083333,0.016667,0.0016667,0.0066667,0.0033333,0.005,0.005,0.015,0.0033333,0.055,0.0083333,0.0016667,0.0066667,0.005,0.0066667,0.0066667,0.013333,0.0016667,0.018333,0.0016667,0.0066667,0.0083333,0.0016667,0.01,0,0.011667,0,0.011667,0.0033333,0.005,0.0033333,0,0.013333,0.015,0.0033333,0.0033333,0.005,0,0.02,0.01,0.016667,0.0016667,0.005,0,0.021667,0.0016667,0.01,0.011667,0.005,0.013333,0.021667,0.036667,0.026667,0.0033333,0.018333,0.011667,0.0033333,0.0033333,0.015,0.011667,0.01,0.025,0.02,0.0083333,0.005,0,0.016667,0.0016667,0.0016667,0,0.0066667,0.0033333,0.025,0.0016667,0.0033333,0.005,0.021667,0.013333,0.01,0.011667
0,0.017094,0.025641,0.019231,0.0021368,0.0021368,0.0042735,0.010684,0.010684,0.0021368,0,0.0021368,0.0021368,0.0021368,0.0064103,0.027778,0.0021368,0.023504,0,0,0.0042735,0.0042735,0.008547,0.032051,0,0.0021368,0.019231,0.008547,0.0021368,0.0042735,0.0042735,0.008547,0.0042735,0.0021368,0.0064103,0.008547,0.008547,0.0021368,0.021368,0.036325,0.0064103,0.0021368,0.0042735,0.010684,0.0021368,0.017094,0,0.0064103,0.0021368,0.0042735,0.0021368,0.025641,0.0064103,0.0064103,0.07265,0,0,0.0021368,0.036325,0.008547,0.0021368,0.049145,0.010684,0.010684,0.0042735,0.0064103,0.014957,0.012821,0.0042735,0.0064103,0.012821,0.0021368,0.008547,0,0.008547,0.0042735,0.0042735,0.012821,0.014957,0.0064103,0.0042735,0.019231,0.008547,0.064103,0,0.0021368,0.0064103,0.010684,0.0021368,0.0042735,0.010684,0.017094,0.0042735,0.0021368,0.0021368,0,0.008547,0.0021368,0.0042735,0.066239
0.015873,0.021825,0.013889,0.0039683,0,0.0019841,0.0059524,0.0079365,0.019841,0.0039683,0.013889,0.013889,0.0079365,0.0039683,0.0059524,0.015873,0,0.011905,0.0019841,0.0099206,0.0079365,0.017857,0.031746,0.011905,0.0059524,0.0019841,0.0079365,0.0019841,0.0059524,0.027778,0,0.0079365,0.0019841,0.0079365,0.0079365,0,0.0099206,0.0039683,0.02381,0.02381,0.0059524,0,0.0039683,0.021825,0.0019841,0.0059524,0,0.0019841,0.0079365,0,0.029762,0.015873,0.0059524,0.021825,0.0019841,0.0079365,0.0099206,0,0.0079365,0.0099206,0.0039683,0.0019841,0.0079365,0.0019841,0.0039683,0.017857,0.015873,0.0019841,0.0079365,0.0079365,0.019841,0.0059524,0.0059524,0.0019841,0.0039683,0.0019841,0.0019841,0.029762,0.0099206,0.0079365,0,0.0019841,0.0079365,0.0039683,0.0079365,0.06746,0.0099206,0.011905,0.0059524,0.027778,0.027778,0.015873,0.025794,0.0059524,0.031746,0.0059524,0.0059524,0.0079365,0.011905,0.0059524
0.0050676,0.0084459,0.013514,0.045608,0.0033784,0.015203,0.0084459,0.016892,0.011824,0.0016892,0.010135,0.0067568,0.011824,0.0084459,0.010135,0.023649,0.0067568,0.010135,0,0.010135,0.0016892,0.015203,0.010135,0.02027,0.0067568,0.0084459,0.010135,0.010135,0.02027,0.028716,0.016892,0,0.0050676,0,0.015203,0.0033784,0.0067568,0.010135,0.015203,0.010135,0.0067568,0.010135,0.015203,0.0050676,0.0067568,0.015203,0.0016892,0.0084459,0.010135,0.015203,0.0067568,0.0067568,0.0050676,0.0050676,0.0050676,0.0067568,0,0.0033784,0.018581,0.018581,0.010135,0.0016892,0.0050676,0.010135,0.021959,0.0016892,0.013514,0.0050676,0.0033784,0.018581,0.0084459,0.023649,0.0050676,0.0067568,0.010135,0,0.011824,0.010135,0.030405,0.025338,0.0067568,0.02027,0.016892,0.0067568,0.010135,0,0.0050676,0.0016892,0.0033784,0.0050676,0.0084459,0.018581,0.0084459,0.0016892,0.0067568,0.010135,0.0050676,0.011824,0.0067568,0.010135
0.0034843,0.010453,0,0.0069686,0.0069686,0,0.0034843,0.017422,0.010453,0.0069686,0.02439,0.0034843,0.0034843,0,0.0069686,0.020906,0,0.031359,0,0,0.0069686,0.0069686,0.017422,0.013937,0.010453,0.0034843,0.020906,0.010453,0,0.0069686,0.0069686,0.034843,0.0034843,0.0069686,0.0069686,0.0069686,0.017422,0.0034843,0.010453,0.02439,0.0034843,0,0.0034843,0.013937,0.0069686,0,0,0.010453,0.010453,0.0069686,0.010453,0.027875,0.0069686,0.010453,0.041812,0.0069686,0.066202,0,0.027875,0,0.0069686,0.017422,0.0034843,0.0069686,0.020906,0.04878,0.0069686,0.0069686,0.0069686,0,0.010453,0.010453,0.0069686,0.0034843,0.013937,0,0.0034843,0.013937,0.0069686,0.0069686,0.0034843,0.010453,0.0069686,0.010453,0.0034843,0.0069686,0,0.0069686,0.027875,0.013937,0.0069686,0.017422,0.0069686,0.0069686,0,0,0.010453,0.010453,0.0034843,0.013937
0.0055762,0.01487,0.0074349,0.013011,0.020446,0.0092937,0.0055762,0.016729,0.0018587,0,0.011152,0.0074349,0.01487,0.0018587,0.018587,0.016729,0.011152,0.0092937,0,0,0.0055762,0.013011,0.0018587,0.016729,0.013011,0.011152,0.016729,0.0037175,0.0092937,0.013011,0.013011,0.0055762,0.011152,0.01487,0.0074349,0.0018587,0.011152,0.011152,0.013011,0.01487,0.01487,0.0037175,0.011152,0.0055762,0.0037175,0.022305,0,0.011152,0.0055762,0.0037175,0.0037175,0.016729,0.0074349,0.020446,0.0018587,0.0092937,0.01487,0,0.01487,0.0018587,0.013011,0.0074349,0.0092937,0.0037175,0.018587,0.013011,0.018587,0.018587,0.013011,0.020446,0.0018587,0.013011,0.0092937,0.0037175,0.011152,0.0074349,0.0018587,0.013011,0.013011,0.0074349,0.0074349,0.031599,0.020446,0.0092937,0.011152,0,0.0074349,0.0074349,0.0074349,0.0037175,0.013011,0.0092937,0.0092937,0.0092937,0.0074349,0.011152,0.0074349,0.0055762,0.016729,0.020446
0.0029615,0.024679,0.0078973,0.0078973,0,0.0029615,0.0029615,0.005923,0.011846,0.0039487,0.030602,0.0039487,0.0049358,0.0098717,0.0078973,0.019743,0.0029615,0.0078973,0.00098717,0,0.0049358,0.010859,0.0078973,0.020731,0.0049358,0,0.018756,0.0049358,0.0019743,0.0078973,0.0049358,0.011846,0.0039487,0.0078973,0.0029615,0.0039487,0.0088845,0.00098717,0.026654,0.034551,0.00098717,0.0049358,0.005923,0.011846,0.00098717,0.014808,0,0.0019743,0.0029615,0.0019743,0.0069102,0.015795,0.00098717,0.020731,0.050346,0.0049358,0.026654,0,0.032577,0.011846,0.0039487,0.030602,0.0049358,0.005923,0.005923,0.021718,0.014808,0.0029615,0.0049358,0.0039487,0.023692,0.00098717,0.0069102,0.00098717,0.0069102,0.0029615,0.005923,0.027641,0.019743,0.0039487,0.005923,0.0019743,0.017769,0.041461,0.0019743,0.0069102,0.0098717,0.005923,0.011846,0.0098717,0.0069102,0.016782,0.0039487,0.005923,0.0078973,0.0069102,0.022705,0.0029615,0.012833,0.033564
0.018308,0.016329,0.0044532,0.011875,0.0069273,0.010886,0.0054429,0.013855,0.011875,0.0029688,0.0039584,0.017318,0.017813,0.0098961,0.036121,0.013855,0.0094013,0.017813,0.0004948,0.0094013,0.0069273,0.020287,0.0019792,0.014844,0.0059377,0.0084117,0.016823,0.011875,0.0069273,0.026719,0.010886,0.0019792,0.017813,0.0059377,0.01237,0.00098961,0.015834,0.010391,0.0094013,0.0069273,0.0094013,0.0004948,0.0084117,0.004948,0.0059377,0.013855,0,0.017813,0.0039584,0.0034636,0.0039584,0.0084117,0.020782,0.01237,0.0029688,0.0084117,0.0064325,0,0.020287,0.012865,0.018308,0.0044532,0.013855,0.0019792,0.017813,0.004948,0.0098961,0.0079169,0.0074221,0.017813,0.010391,0.014349,0.011875,0.0079169,0.015834,0.0054429,0.00098961,0.011381,0.017318,0.01336,0.0089065,0.017813,0.013855,0.0089065,0.0074221,0,0.0074221,0.0069273,0.0014844,0.00098961,0.0064325,0.002474,0.024245,0.0014844,0.0029688,0.0098961,0.0098961,0.012865,0.015834,0.0098961
0.011997,0.018852,0.0017138,0.011997,0.010283,0.008569,0.0051414,0.0077121,0.011997,0.0042845,0.015424,0.0077121,0.010283,0.0068552,0.041131,0.016281,0.0068552,0.015424,0.0008569,0.0051414,0.0059983,0.010283,0.0025707,0.01371,0.0025707,0.0034276,0.010283,0.0059983,0.0008569,0.015424,0,0.0051414,0.019709,0.0042845,0.0094259,0.0025707,0.015424,0.0017138,0.012853,0.025707,0.0042845,0.0008569,0.0051414,0.0042845,0.0008569,0.011997,0,0.0094259,0.0017138,0,0.0042845,0.014567,0.018852,0.014567,0.052271,0.0017138,0.012853,0,0.017138,0.01371,0.011997,0.03599,0.015424,0.0017138,0.01114,0.01114,0.011997,0.012853,0.0042845,0.010283,0.011997,0.01114,0.019709,0.0034276,0.010283,0.0042845,0.0017138,0.017138,0.017138,0.019709,0.0051414,0.01114,0.017138,0.018852,0.0017138,0.0008569,0.017138,0.0068552,0.0094259,0.0017138,0.0025707,0.0051414,0.017995,0.0042845,0.0034276,0.0059983,0.01371,0.0094259,0.019709,0.0094259
0.01432,0.019093,0,0.016706,0.016706,0.011933,0.0047733,0.011933,0.01432,0.0047733,0.0047733,0.01432,0.0095465,0.019093,0.016706,0.031026,0.0023866,0.0071599,0.0023866,0.0047733,0.01432,0.033413,0.0023866,0.033413,0.0023866,0,0.02864,0.019093,0.019093,0.016706,0.0047733,0,0.0047733,0.0047733,0.016706,0.0047733,0.011933,0.0023866,0.019093,0.0071599,0.0047733,0,0.0071599,0.0095465,0,0.01432,0,0.01432,0.0047733,0,0.0071599,0,0.02148,0.01432,0.0023866,0.0047733,0.0047733,0,0.026253,0.019093,0.0071599,0,0,0.0047733,0.019093,0,0.026253,0.0047733,0.0095465,0.02864,0.02148,0.019093,0.011933,0.0023866,0.0095465,0.0095465,0.0047733,0.0023866,0.026253,0.016706,0.016706,0.011933,0.01432,0.0047733,0.0047733,0,0.011933,0.0023866,0.0071599,0,0,0.0071599,0.0095465,0.0071599,0.0023866,0.0071599,0.01432,0.0047733,0.0095465,0.011933
0.044248,0.0044248,0.0017699,0.0061947,0.0061947,0.014159,0.0070796,0.0035398,0.010619,0.0061947,0.015044,0.024779,0.029204,0.046018,0.015044,0.015929,0.0044248,0.014159,0.0017699,0.039823,0.013274,0.019469,0.0079646,0.0035398,0.0017699,0.0035398,0.0026549,0.023894,0.0053097,0.046018,0.0026549,0,0.0061947,0.0061947,0.021239,0.0035398,0.011504,0.0088496,0.0097345,0,0.0044248,0.0017699,0.0061947,0,0.00088496,0.0097345,0,0.026549,0.0017699,0.0017699,0.012389,0,0.018584,0.0097345,0.00088496,0.0026549,0.0026549,0,0.0097345,0.013274,0.0070796,0.00088496,0.0053097,0.0026549,0.0070796,0.00088496,0.016814,0.0035398,0.00088496,0.061062,0.022124,0.024779,0.014159,0.0061947,0.015044,0.0070796,0.0061947,0,0.013274,0.0079646,0.0061947,0.015044,0.0035398,0,0.0088496,0,0.0044248,0.0097345,0.0026549,0,0.012389,0,0.027434,0.0053097,0.0070796,0.0088496,0.0097345,0.015929,0.0088496,0
0.016198,0.018104,0.0023821,0.013816,0.0071463,0.0076227,0.0071463,0.012387,0.011434,0.0023821,0.011434,0.012387,0.029061,0.016675,0.01334,0.021439,0.0061934,0.015245,0.00095283,0.010005,0.0028585,0.028109,0.0014293,0.0095283,0.0033349,0.005717,0.021439,0.022392,0.0038113,0.026203,0.0061934,0.0033349,0.0076227,0.0076227,0.012387,0.0019057,0.014293,0.0019057,0.019533,0.012387,0.0019057,0.0019057,0.0038113,0.0071463,0.0014293,0.022868,0,0.011434,0.0028585,0.0019057,0.0023821,0.005717,0.020486,0.015245,0.0028585,0.0019057,0.0052406,0.00095283,0.03192,0.019057,0.013816,0.0019057,0.0052406,0.005717,0.01334,0.0061934,0.01858,0.0090519,0.0033349,0.034778,0.019533,0.020962,0.014769,0.0071463,0.014769,0.0047642,0.00047642,0.0095283,0.03192,0.01191,0.0061934,0.012863,0.013816,0.0038113,0.0028585,0.0014293,0.014293,0.0014293,0.0028585,0.00095283,0.0071463,0.0090519,0.01334,0.00047642,0.00047642,0.0047642,0.017151,0.012387,0.005717,0.012863
0.016198,0.018104,0.0023821,0.013816,0.0071463,0.0076227,0.0071463,0.012387,0.011434,0.0023821,0.011434,0.012387,0.029061,0.016675,0.01334,0.021439,0.0061934,0.015245,0.00095283,0.010005,0.0028585,0.028109,0.0014293,0.0095283,0.0033349,0.005717,0.021439,0.022392,0.0038113,0.026203,0.0061934,0.0033349,0.0076227,0.0076227,0.012387,0.0019057,0.014293,0.0019057,0.019533,0.012387,0.0019057,0.0019057,0.0038113,0.0071463,0.0014293,0.022868,0,0.011434,0.0028585,0.0019057,0.0023821,0.005717,0.020486,0.015245,0.0028585,0.0019057,0.0052406,0.00095283,0.03192,0.019057,0.013816,0.0019057,0.0052406,0.005717,0.01334,0.0061934,0.01858,0.0090519,0.0033349,0.034778,0.019533,0.020962,0.014769,0.0071463,0.014769,0.0047642,0.00047642,0.0095283,0.03192,0.01191,0.0061934,0.012863,0.013816,0.0038113,0.0028585,0.0014293,0.014293,0.0014293,0.0028585,0.00095283,0.0071463,0.0090519,0.01334,0.00047642,0.00047642,0.0047642,0.017151,0.012387,0.005717,0.012863
0.022222,0.025397,0.0079365,0.020635,0.0079365,0.0047619,0.0095238,0.011111,0.0047619,0.0015873,0.011111,0.014286,0.022222,0.014286,0.015873,0.01746,0.011111,0.012698,0,0.0031746,0.0047619,0.044444,0,0.012698,0,0.0031746,0.028571,0.0079365,0.0095238,0.015873,0.0063492,0.0047619,0.019048,0.0031746,0.014286,0.0031746,0.011111,0.0047619,0.0079365,0.0079365,0.0063492,0.0047619,0.0047619,0.0047619,0,0.020635,0,0.011111,0.0031746,0.0015873,0.0047619,0.014286,0.01746,0.014286,0.0063492,0,0.0047619,0,0.039683,0.014286,0.012698,0.0015873,0.0047619,0,0.01746,0.0015873,0.015873,0.0031746,0.012698,0.01746,0.015873,0.022222,0.011111,0.0047619,0.012698,0.0047619,0,0.0031746,0.026984,0.012698,0.0079365,0.033333,0.012698,0.0095238,0,0.0063492,0.0079365,0,0,0.0031746,0.0047619,0.0015873,0.01746,0.0031746,0.0031746,0.0095238,0.020635,0.0095238,0.0079365,0.019048
0.021277,0.017408,0.00096712,0.017408,0.0029014,0.0048356,0.0077369,0.0058027,0.014507,0.0019342,0.0096712,0.018375,0.054159,0.049323,0.011605,0.025145,0.0038685,0.012573,0,0.020309,0.0096712,0.056093,0.00096712,0.014507,0.0019342,0.0029014,0.022244,0.017408,0.00096712,0.032882,0.0019342,0.0019342,0.00096712,0.0058027,0.010638,0.00096712,0.0077369,0.00096712,0.016441,0.0048356,0.0019342,0,0.0029014,0.0029014,0.0029014,0.031915,0,0.0067698,0.0038685,0.0029014,0.00096712,0.0019342,0.031915,0.014507,0.0029014,0.0019342,0.00096712,0,0.021277,0.026112,0.0048356,0.00096712,0.0029014,0.00096712,0.0058027,0.00096712,0.020309,0.0058027,0.00096712,0.034816,0.014507,0.017408,0.015474,0.0029014,0.010638,0.0048356,0.0029014,0.0019342,0.048356,0.0067698,0.011605,0.010638,0.0096712,0.0029014,0,0,0.0058027,0.0029014,0.0077369,0,0.0029014,0.0048356,0.021277,0.0048356,0,0.00096712,0.017408,0.010638,0.0077369,0.0038685
0.0078247,0.025039,0.0015649,0.017214,0.0062598,0.0046948,0.0046948,0.010955,0.020344,0.0078247,0.0015649,0.020344,0.017214,0.0062598,0.025039,0.014085,0.01252,0.018779,0,0.010955,0.010955,0.020344,0.0031299,0.014085,0.0031299,0.0062598,0.017214,0.018779,0.0031299,0.037559,0.0078247,0.0031299,0.0015649,0.0093897,0.010955,0.0015649,0.017214,0.0046948,0.01252,0.0078247,0.0062598,0.0015649,0.015649,0.010955,0.0046948,0.021909,0.0015649,0.0093897,0.0078247,0.0031299,0.0046948,0.01252,0.021909,0.010955,0,0.0062598,0.0093897,0.0015649,0.032864,0.017214,0.020344,0,0.0062598,0,0.025039,0.0062598,0.0093897,0.020344,0.0015649,0.017214,0.023474,0.014085,0.010955,0.0062598,0.0031299,0.0093897,0.0062598,0.0078247,0.017214,0.0093897,0.0062598,0.0062598,0.017214,0.0015649,0.0015649,0.0015649,0.010955,0.0062598,0.0046948,0,0.0015649,0.0093897,0.010955,0.0046948,0.0015649,0.0031299,0.0062598,0.01252,0.017214,0.017214
0.018258,0.016854,0.0042135,0.008427,0.005618,0.008427,0.01264,0.01264,0.0070225,0.0042135,0.008427,0.023876,0.016854,0.01264,0.016854,0.0070225,0.0014045,0.016854,0.0014045,0.0014045,0.014045,0.026685,0.0014045,0.023876,0.0042135,0.002809,0.033708,0.014045,0.008427,0.019663,0.0014045,0.0014045,0.008427,0.015449,0.02809,0.002809,0.005618,0.005618,0.0070225,0.0098315,0.016854,0.002809,0.002809,0.01264,0,0.022472,0,0.015449,0.005618,0.0014045,0.002809,0.0014045,0.022472,0.008427,0.01264,0.0042135,0.005618,0.0014045,0.030899,0.021067,0.008427,0.002809,0.0042135,0.0014045,0.0098315,0.002809,0.0070225,0.005618,0.011236,0.021067,0.008427,0.015449,0.01264,0.0042135,0.014045,0.008427,0.0014045,0.0042135,0.021067,0.0070225,0.01264,0.022472,0.021067,0.0070225,0.008427,0,0.008427,0.008427,0.0014045,0,0.015449,0.005618,0.015449,0.0014045,0.002809,0.0070225,0.014045,0.015449,0.019663,0.011236
0.017884,0.016393,0.0029806,0.013413,0.0044709,0.0059613,0.013413,0.011923,0.0074516,0.0074516,0.0059613,0.014903,0.028316,0.014903,0.019374,0.014903,0.0074516,0.017884,0.0014903,0.0029806,0.0059613,0.034277,0.0014903,0.020864,0.0044709,0.0014903,0.017884,0.016393,0.0059613,0.037258,0.0059613,0,0.0074516,0.010432,0.014903,0.0014903,0.014903,0.011923,0.017884,0.0059613,0.0074516,0.0029806,0.0059613,0.023845,0,0.019374,0,0.023845,0.0014903,0.0014903,0.0044709,0.0014903,0.025335,0.0044709,0,0.0044709,0.0029806,0,0.016393,0.019374,0.010432,0.0014903,0.013413,0,0.025335,0,0.0074516,0.0089419,0.0014903,0.023845,0.017884,0.023845,0.0074516,0.0059613,0.011923,0.0029806,0,0.0089419,0.017884,0.014903,0.016393,0.020864,0.017884,0.0059613,0.0044709,0,0.011923,0.0074516,0,0,0.016393,0.0029806,0.011923,0,0.0014903,0.0014903,0.0059613,0.0089419,0.013413,0.016393
0,0.038462,0,0.038462,0,0,0,0,0,0,0,0.019231,0.019231,0.019231,0,0.019231,0,0.057692,0,0,0,0.076923,0,0.057692,0.019231,0,0.038462,0.038462,0,0.038462,0,0,0,0,0,0.038462,0,0,0.038462,0,0,0,0,0,0,0.038462,0,0,0,0,0,0,0,0,0,0,0.019231,0,0.076923,0,0.019231,0,0,0.019231,0,0,0.019231,0.019231,0.019231,0.057692,0,0.019231,0,0,0.038462,0,0,0,0.019231,0,0.019231,0,0,0.019231,0,0,0.019231,0,0,0,0,0,0.019231,0,0,0,0,0,0,0
0.021521,0.0086083,0.0028694,0.0086083,0.010043,0.015782,0.0014347,0.0057389,0.011478,0.0028694,0.0028694,0.020086,0.010043,0.0028694,0.018651,0.014347,0.010043,0.025825,0,0.0028694,0.0014347,0.0028694,0.034433,0.0028694,0.0028694,0.0057389,0.015782,0.022956,0.015782,0.0043042,0.0043042,0.0028694,0.0014347,0.0028694,0.0086083,0.0057389,0.0071736,0.011478,0.0057389,0.017217,0,0.0057389,0.012912,0.010043,0.0057389,0.017217,0.0028694,0.015782,0.0057389,0.010043,0.0028694,0.021521,0.014347,0.010043,0.0014347,0.021521,0.021521,0.0043042,0.012912,0.010043,0.012912,0.011478,0.0057389,0.0043042,0.0086083,0.0086083,0.010043,0.0028694,0.0071736,0.020086,0.0057389,0.0086083,0.015782,0.0028694,0.017217,0.0057389,0.0014347,0.025825,0.0071736,0.0057389,0.0028694,0.0057389,0,0.0028694,0.014347,0.058824,0.0057389,0.0086083,0,0.012912,0.010043,0.0071736,0.017217,0.0014347,0.041607,0.010043,0.010043,0.010043,0.0071736,0.0057389
0.013793,0.02069,0.013793,0.02069,0,0.013793,0,0.0068966,0.048276,0.013793,0.034483,0.0068966,0,0,0.0068966,0.0068966,0.0068966,0,0,0,0.013793,0.041379,0,0.013793,0.0068966,0.027586,0,0.0068966,0,0.034483,0.013793,0.013793,0.013793,0.02069,0.013793,0.0068966,0,0,0.027586,0,0,0,0.0068966,0.068966,0.0068966,0.0068966,0,0.013793,0.0068966,0,0.0068966,0,0.027586,0.02069,0,0,0.0068966,0,0.0068966,0.02069,0.0068966,0,0.0068966,0.0068966,0.02069,0.0068966,0,0.0068966,0.013793,0.027586,0.02069,0.0068966,0.013793,0,0.0068966,0.02069,0.013793,0,0.0068966,0.0068966,0,0.0068966,0,0,0.0068966,0,0.013793,0,0.02069,0,0,0.02069,0.0068966,0,0,0,0.027586,0.013793,0.02069,0
0,0,0,0.090909,0,0,0,0,0,0,0,0,0,0,0,0,0,0,0,0,0,0,0,0.090909,0,0,0,0,0,0,0,0,0,0,0,0,0,0,0,0,0,0,0,0,0,0,0,0,0,0,0,0.18182,0,0,0,0,0.090909,0,0.090909,0,0,0,0,0,0,0,0,0,0,0,0,0,0,0,0,0,0,0,0,0,0,0,0,0,0,0,0,0,0,0,0,0,0,0,0,0,0,0,0,0.45455
0,0.030303,0.0060606,0.0060606,0.0060606,0.0060606,0.030303,0.018182,0.012121,0.012121,0,0.0060606,0,0.012121,0.024242,0.012121,0.012121,0.018182,0.018182,0,0.012121,0,0.018182,0,0,0.012121,0.0060606,0.0060606,0,0.0060606,0.0060606,0.0060606,0.012121,0.018182,0.0060606,0.012121,0.0060606,0.018182,0.0060606,0.012121,0.0060606,0.0060606,0.012121,0.012121,0.018182,0,0.0060606,0.012121,0.012121,0.030303,0.030303,0,0.0060606,0.0060606,0.018182,0,0,0,0,0,0,0.0060606,0.0060606,0.030303,0.012121,0.012121,0,0.012121,0.0060606,0,0.012121,0.0060606,0.012121,0.030303,0.018182,0.012121,0,0.012121,0,0.012121,0.018182,0.012121,0.0060606,0.024242,0,0.0060606,0.012121,0.036364,0.018182,0.0060606,0.0060606,0,0.012121,0.012121,0.012121,0,0.018182,0.0060606,0.024242,0
0.011799,0.017699,0.0088496,0.0073746,0.0073746,0.0029499,0.0073746,0.0088496,0.013274,0.0044248,0.011799,0.010324,0.010324,0.0029499,0.0073746,0.013274,0.0058997,0.011799,0.0014749,0,0.0058997,0.0058997,0.0073746,0.014749,0.0088496,0.0044248,0.014749,0.014749,0.017699,0.017699,0.011799,0.0014749,0.013274,0.0088496,0.014749,0.0029499,0.019174,0.0058997,0.019174,0.010324,0.011799,0.0044248,0.0058997,0.010324,0,0.013274,0.0014749,0.0088496,0.0044248,0.0029499,0.014749,0.0058997,0.0088496,0.017699,0.010324,0.0088496,0.011799,0,0.020649,0.010324,0.013274,0.0088496,0.011799,0.0073746,0.0029499,0.0029499,0.013274,0.010324,0.011799,0.0058997,0.016224,0.011799,0.011799,0.0014749,0.0058997,0.0073746,0.0058997,0.022124,0.017699,0.0073746,0.011799,0.0073746,0.017699,0.010324,0.033923,0.010324,0.010324,0.0058997,0.0029499,0.013274,0.025074,0.0058997,0.016224,0.0058997,0.011799,0.010324,0.017699,0.0073746,0.016224,0.0058997
0.035714,0,0,0,0.071429,0.017857,0.017857,0.017857,0.035714,0,0.035714,0.017857,0,0,0.017857,0,0.071429,0,0,0.017857,0.017857,0,0,0,0,0,0,0,0,0.071429,0,0,0.071429,0.017857,0,0,0.035714,0.017857,0.017857,0.017857,0,0,0,0,0,0,0,0,0,0,0,0,0.053571,0,0,0,0,0,0,0,0,0,0.053571,0,0,0,0,0.035714,0,0,0.017857,0,0,0,0,0.035714,0,0.017857,0,0.035714,0.017857,0.017857,0,0,0,0,0,0,0.053571,0,0,0,0.017857,0,0,0,0,0,0.017857,0
0,0,0.022222,0.066667,0,0,0.044444,0,0,0,0,0,0,0,0,0,0,0,0,0,0,0.066667,0,0,0,0,0,0,0,0,0.022222,0,0.044444,0,0,0,0,0,0.022222,0,0,0,0,0.066667,0.044444,0,0,0,0.022222,0.022222,0.022222,0,0,0,0,0,0,0,0.022222,0,0,0,0.022222,0,0,0,0,0,0,0,0.022222,0.022222,0,0.044444,0,0,0,0,0,0,0,0,0,0,0,0.4,0,0,0,0,0,0,0,0,0,0,0,0,0,0
0,0.006993,0.013986,0,0.027972,0.006993,0.006993,0,0.013986,0,0.034965,0,0.013986,0.006993,0,0.034965,0.020979,0.006993,0.006993,0,0.006993,0.013986,0.020979,0.006993,0,0,0,0,0,0,0.006993,0,0.006993,0,0.006993,0.006993,0.006993,0.006993,0.020979,0,0.013986,0.006993,0.006993,0.020979,0,0.006993,0,0.006993,0.013986,0,0.013986,0,0.013986,0.006993,0.034965,0,0,0,0.020979,0,0,0.020979,0,0.006993,0.006993,0.013986,0.013986,0,0.006993,0.013986,0.006993,0,0,0,0.006993,0.013986,0,0,0.11189,0.020979,0.027972,0.020979,0.006993,0.027972,0,0,0.034965,0.013986,0.034965,0.006993,0.006993,0.034965,0,0,0.006993,0,0.013986,0.006993,0.006993,0.020979
0.013062,0.01016,0.0072569,0.020319,0.0043541,0.0014514,0.0014514,0.013062,0.01016,0.0029028,0.0043541,0.01016,0.013062,0.0029028,0.0058055,0.0072569,0.0043541,0.011611,0.01016,0.0014514,0.018868,0.017417,0.0072569,0.013062,0.014514,0.0043541,0.020319,0.014514,0.0043541,0.011611,0.011611,0,0.013062,0.020319,0.013062,0.0072569,0.017417,0.013062,0.014514,0.018868,0.01016,0.0043541,0.013062,0.01016,0.0072569,0.011611,0.0014514,0.024673,0.0058055,0.014514,0.0058055,0.015965,0.015965,0.0087083,0.0072569,0.01016,0.0029028,0.0029028,0.020319,0.024673,0.0058055,0.0029028,0.0072569,0.0029028,0.0043541,0.0043541,0.01016,0.0029028,0.0072569,0.0087083,0.015965,0.017417,0.014514,0.0029028,0.018868,0.0058055,0.0087083,0.0043541,0.011611,0.013062,0.0087083,0.014514,0.017417,0.0087083,0.0058055,0.0029028,0.01016,0.0072569,0.0043541,0.013062,0.011611,0.017417,0.0087083,0.011611,0.0087083,0.0072569,0.0058055,0.011611,0.0072569,0.018868
0.015038,0.0090226,0.016541,0.019549,0.0045113,0.0075188,0.0090226,0.016541,0.0075188,0.006015,0.0015038,0.0090226,0.022556,0.027068,0.0090226,0.02406,0.006015,0.021053,0.0090226,0.019549,0.0015038,0.030075,0.0030075,0.02406,0,0.0045113,0.025564,0.01203,0.0015038,0.018045,0.0045113,0.0030075,0.0030075,0.006015,0.019549,0.0030075,0.016541,0.0015038,0.006015,0.013534,0.0030075,0.0030075,0.0045113,0.0090226,0.0015038,0.015038,0,0.0075188,0,0.006015,0.006015,0.013534,0.015038,0.010526,0.0015038,0.0030075,0.0030075,0,0.022556,0.019549,0.006015,0.0015038,0.0045113,0.0030075,0.01203,0.006015,0.022556,0.0075188,0.0045113,0.042105,0.0075188,0.027068,0.0045113,0.006015,0.015038,0.0045113,0.0045113,0.010526,0.018045,0.021053,0.0090226,0.025564,0.015038,0.0075188,0.0015038,0,0.021053,0.0045113,0,0.0045113,0.0015038,0.006015,0.010526,0.0075188,0.0015038,0.0030075,0.019549,0.010526,0.0075188,0.013534
0,0.013109,0.011236,0.0093633,0.005618,0.0037453,0.0037453,0.0074906,0.0093633,0.0037453,0.018727,0.005618,0.0037453,0,0,0.0018727,0.005618,0.0093633,0.0018727,0,0.0037453,0.005618,0.029963,0.022472,0.0037453,0.0018727,0.011236,0.0037453,0.011236,0.005618,0.0018727,0.033708,0.005618,0.013109,0.0018727,0.005618,0.0093633,0.016854,0.0093633,0.022472,0.0074906,0.0018727,0.0037453,0.011236,0.0037453,0.0018727,0,0.0037453,0.0037453,0.0018727,0.0093633,0.029963,0.0037453,0.0093633,0.014981,0.016854,0.024345,0.0018727,0.014981,0.0018727,0.011236,0.0093633,0.013109,0.013109,0.005618,0.026217,0.0074906,0.011236,0.0037453,0.0037453,0.0074906,0.0074906,0.0074906,0.0018727,0.011236,0.014981,0.0074906,0.0093633,0.0037453,0.0037453,0.0093633,0.0037453,0.0037453,0.020599,0.018727,0.039326,0.011236,0.020599,0.014981,0.016854,0.011236,0.0074906,0.0018727,0.0074906,0.043071,0.031835,0.011236,0.0093633,0.0093633,0.02809
0.010941,0.0043764,0.019694,0.013129,0.0065646,0.0043764,0.010941,0.015317,0.015317,0.0021882,0.02407,0.0021882,0.0021882,0.0021882,0.0065646,0.0065646,0.0021882,0.015317,0.0043764,0.013129,0.013129,0.010941,0.02407,0.0087527,0.0065646,0.0043764,0.0043764,0.0021882,0.0043764,0.015317,0.0065646,0.0065646,0,0.0065646,0.0043764,0.0043764,0.010941,0.010941,0.0065646,0.0065646,0.021882,0.015317,0.0087527,0.015317,0,0.0065646,0.0021882,0,0.010941,0.0021882,0.013129,0.010941,0.010941,0.0087527,0,0.0021882,0.0021882,0.010941,0.026258,0.0065646,0.021882,0,0.0043764,0.0043764,0.015317,0.0065646,0.010941,0.019694,0.010941,0.010941,0.019694,0.013129,0.010941,0.010941,0.0065646,0.010941,0.013129,0.0043764,0,0.0043764,0.019694,0.030635,0.0065646,0.0043764,0.0087527,0.028446,0.010941,0.015317,0,0.032823,0.021882,0.015317,0.0087527,0.0065646,0.019694,0.0065646,0.017505,0.0087527,0.013129,0.010941
0.014235,0.0088968,0.010676,0.019573,0.010676,0.0053381,0.021352,0.021352,0.012456,0.0017794,0.014235,0.010676,0.0088968,0.010676,0.0088968,0.010676,0,0.021352,0.0017794,0.0017794,0.014235,0.010676,0.0088968,0.0071174,0.0071174,0.024911,0.012456,0.0088968,0.0035587,0.010676,0,0.0035587,0.0053381,0.016014,0.012456,0.0088968,0.016014,0,0.012456,0.0088968,0.0071174,0.0053381,0.0071174,0.014235,0.014235,0.0088968,0.0035587,0.012456,0.010676,0.0053381,0.0053381,0.0071174,0.010676,0.02669,0.0017794,0.0017794,0.0035587,0,0.014235,0.0088968,0.010676,0.0053381,0.0088968,0.017794,0.024911,0.010676,0.012456,0.0088968,0.0071174,0.024911,0.019573,0.014235,0.0035587,0.02669,0.0088968,0.0017794,0.0088968,0.0053381,0.010676,0.0035587,0.010676,0.032028,0.014235,0.012456,0.0035587,0,0.0071174,0.0071174,0.010676,0.0035587,0.0071174,0.023132,0.0088968,0.0071174,0,0.0035587,0.010676,0.0053381,0.010676,0.010676
0.01,0.005,0.02,0.01,0.0025,0,0.0375,0.02,0.015,0.005,0.0125,0.0125,0.0075,0.01,0.0025,0.0025,0.0025,0.0275,0.0075,0.005,0.0125,0.015,0.0075,0.0075,0,0.0125,0.0125,0.0025,0,0.0025,0.005,0.0325,0.005,0.0025,0.0075,0.0275,0.0025,0,0,0.0125,0.01,0.0075,0,0.0225,0.0225,0.015,0.0125,0.0025,0.01,0.0125,0.005,0.035,0.0075,0.0025,0.0225,0,0.0075,0.0125,0.03,0.0175,0.005,0.015,0,0.0175,0.0325,0.0075,0.0075,0,0,0.01,0.0025,0.0175,0.0025,0.0375,0.0225,0.0075,0.005,0,0,0.0075,0.0075,0.03,0,0.015,0.0075,0.0025,0.0075,0,0.0275,0.0075,0.005,0.015,0.0025,0.0025,0.005,0,0.0175,0.005,0.0025,0.005
0,0.0099206,0.015873,0.011905,0.0039683,0.017857,0.013889,0.0039683,0.011905,0.011905,0.0079365,0.0079365,0.0079365,0.0039683,0,0.011905,0.0079365,0.0099206,0.0099206,0.0019841,0.0039683,0.0079365,0.011905,0.011905,0.011905,0.0039683,0.011905,0.011905,0.021825,0.013889,0.0099206,0.015873,0.0059524,0.0059524,0.0079365,0.011905,0.0099206,0.027778,0.0039683,0.013889,0.0059524,0.015873,0.017857,0.019841,0.0059524,0.013889,0.0039683,0.015873,0.025794,0.0039683,0.0079365,0.019841,0.0099206,0.0079365,0.0059524,0.011905,0.0079365,0.019841,0.0099206,0.0019841,0.0079365,0.0019841,0.0079365,0.0079365,0.0099206,0.0079365,0.0039683,0.0079365,0.0099206,0,0.0079365,0.011905,0.0019841,0.011905,0.0059524,0.011905,0.02381,0.0079365,0.0059524,0.0039683,0.013889,0.0039683,0.0079365,0.0059524,0.019841,0.019841,0.0059524,0.0059524,0.0019841,0.021825,0.0079365,0.021825,0.0079365,0.0079365,0.0079365,0.027778,0.0079365,0.0039683,0.0079365,0.0059524
0.021311,0.004918,0.004918,0.018033,0.016393,0.0081967,0.0081967,0.014754,0.016393,0.014754,0.0065574,0.021311,0.0081967,0.004918,0.013115,0.0032787,0.018033,0.013115,0.014754,0.004918,0.019672,0.021311,0.0065574,0.0098361,0.0032787,0.0065574,0.016393,0.016393,0.0032787,0.022951,0.0065574,0.0016393,0.016393,0.018033,0.013115,0.0032787,0.011475,0.0081967,0.016393,0.0016393,0.021311,0.0016393,0.011475,0.013115,0.0016393,0.011475,0,0.018033,0.0016393,0.0032787,0.013115,0.0016393,0.022951,0.0098361,0.0016393,0.0032787,0,0,0.0065574,0.016393,0.016393,0,0.016393,0,0.02623,0.0065574,0.016393,0.0032787,0.004918,0.0098361,0.0098361,0.016393,0.004918,0.0032787,0.013115,0.021311,0.0032787,0.0032787,0.0065574,0.0065574,0.018033,0.0098361,0.011475,0,0.0098361,0,0.014754,0.018033,0.014754,0.004918,0.011475,0.0081967,0.013115,0.0081967,0.0032787,0.0065574,0.0081967,0.014754,0.013115,0.004918
0.014118,0.0047059,0.016471,0,0.0047059,0.016471,0.0094118,0.0047059,0.0047059,0.0023529,0.0070588,0.014118,0,0.0070588,0.0070588,0.014118,0.0047059,0.016471,0.0047059,0.0047059,0.018824,0,0.032941,0.0094118,0.016471,0.011765,0,0.014118,0.018824,0.0094118,0.0094118,0.0023529,0.0094118,0.0070588,0.021176,0,0.018824,0.014118,0.030588,0,0.0070588,0.0023529,0.021176,0.0094118,0,0.0070588,0.0023529,0.0094118,0.0047059,0.0023529,0.0047059,0.0094118,0.0094118,0.0094118,0.0094118,0.023529,0.0047059,0,0.0047059,0.0023529,0.025882,0,0.0047059,0.0023529,0.0047059,0.0047059,0.0070588,0.011765,0.028235,0.0047059,0.030588,0.0023529,0.016471,0.0023529,0.0023529,0.011765,0.0023529,0.018824,0.0047059,0.0023529,0.011765,0.0023529,0.0094118,0.0094118,0.016471,0.058824,0,0.0094118,0.014118,0.018824,0.0070588,0.0094118,0.0070588,0.0023529,0.044706,0.014118,0.0023529,0.0094118,0.011765,0.0070588
0,0,0.027778,0,0.027778,0,0.027778,0,0.027778,0,0,0,0.027778,0,0,0,0.055556,0,0,0,0.027778,0,0,0,0,0,0.027778,0,0,0,0,0.027778,0.055556,0.055556,0,0,0,0,0.055556,0.055556,0,0,0,0,0,0.027778,0,0,0,0,0.027778,0,0.027778,0,0,0,0,0,0,0,0,0,0.083333,0,0,0.027778,0,0,0.055556,0,0.083333,0,0,0.027778,0,0,0,0.055556,0,0,0,0,0,0,0,0,0.027778,0,0,0,0.027778,0.027778,0,0,0,0,0,0,0,0
0.017518,0.0014599,0.0072993,0.010219,0.018978,0.0029197,0.011679,0.0072993,0.0029197,0.0058394,0,0.0043796,0.0043796,0.0014599,0.013139,0,0.023358,0.010219,0.0043796,0,0.0087591,0,0.027737,0.0058394,0.014599,0.013139,0.0014599,0.0029197,0.016058,0.0058394,0.0087591,0.0029197,0.013139,0.0087591,0.010219,0.0058394,0.029197,0.017518,0.0058394,0.0014599,0.0087591,0.0058394,0.013139,0.0029197,0.0087591,0.0014599,0,0.0058394,0.0072993,0.010219,0.014599,0.0058394,0.0043796,0.010219,0,0.018978,0.0072993,0.0014599,0.0043796,0.0029197,0.0029197,0.0043796,0.010219,0.0043796,0.020438,0.0043796,0,0.0072993,0.030657,0.011679,0.0029197,0.0029197,0.0058394,0.014599,0.010219,0.010219,0.017518,0.0058394,0.0058394,0.023358,0.0072993,0.018978,0.0029197,0,0.045255,0.087591,0.011679,0.014599,0.0014599,0.029197,0.027737,0.0087591,0.0072993,0.0058394,0.013139,0.011679,0,0.0087591,0.020438,0
0.0057143,0.0014286,0.012857,0.028571,0.018571,0.011429,0.017143,0.017143,0.0028571,0.0028571,0.0042857,0.0042857,0.0071429,0.0014286,0.017143,0.0014286,0.017143,0.012857,0.0028571,0,0.011429,0.0071429,0.014286,0.011429,0.022857,0.017143,0.017143,0.0014286,0.011429,0.0014286,0.021429,0.0014286,0.01,0.022857,0.015714,0.011429,0.018571,0.0042857,0.0057143,0.0014286,0.017143,0.018571,0.0057143,0.0028571,0.018571,0.012857,0.0014286,0.011429,0.03,0.015714,0.012857,0.011429,0.0071429,0.0071429,0,0.0014286,0.0028571,0.0028571,0.0028571,0.0057143,0.017143,0,0.011429,0.0085714,0.017143,0.0014286,0.0042857,0.011429,0.014286,0.0057143,0.0071429,0.011429,0.01,0.014286,0.012857,0.0085714,0.012857,0.0014286,0.0014286,0.012857,0.012857,0.048571,0.0042857,0,0.02,0.0071429,0.015714,0.017143,0,0.0085714,0.017143,0.0057143,0.0085714,0.0057143,0.0057143,0.0028571,0.0014286,0.0071429,0.022857,0
0.0037296,0.0041958,0.0083916,0.0041958,0.021911,0.016317,0.018648,0.012121,0.0065268,0.0037296,0.004662,0.0060606,0.0027972,0,0.004662,0.0009324,0.022378,0.0079254,0.006993,0.0013986,0.010256,0.0051282,0.020047,0.0083916,0.0088578,0.0088578,0.002331,0.0037296,0.023776,0.0051282,0.015385,0.0037296,0.009324,0.01352,0.01352,0.004662,0.012587,0.023776,0.006993,0.002331,0.016317,0.0051282,0.02331,0.0055944,0.0074592,0.0032634,0,0.017249,0.0055944,0.0074592,0.018648,0.0018648,0.002331,0.0051282,0,0.035431,0.0018648,0.0055944,0.0037296,0.0032634,0.004662,0,0.013986,0.0041958,0.026573,0.0041958,0.0018648,0.011655,0.017716,0.0083916,0.0027972,0.0037296,0.0032634,0.018182,0.0088578,0.012587,0.0079254,0.0013986,0.0027972,0.0097902,0.009324,0.016317,0.006993,0.002331,0.047552,0.013986,0.020513,0.013986,0.0079254,0.006993,0.024242,0.009324,0.0041958,0.004662,0.044755,0.02704,0.0037296,0.013054,0.025175,0.0041958
0.0045363,0.0065524,0.0080645,0.02621,0.0060484,0.010081,0.0095766,0.015121,0.010081,0.015121,0.0045363,0.0025202,0.0030242,0.0035282,0.0095766,0.0035282,0.0050403,0.012097,0.0095766,0.00050403,0.016129,0.010081,0.019657,0.015121,0.020665,0.020665,0.0085685,0.0065524,0.0085685,0.0025202,0.017641,0.0085685,0.0095766,0.014113,0.0090726,0.0085685,0.0080645,0.0070565,0.0050403,0.0040323,0.015625,0.023185,0.0055444,0.014617,0.020665,0.0045363,0.0015121,0.0070565,0.018145,0.014113,0.018649,0.0070565,0.0045363,0.010081,0.0015121,0.0095766,0.010081,0.011593,0.0080645,0.0075605,0.0045363,0.0025202,0.0060484,0.0055444,0.010081,0.0045363,0.0040323,0.015625,0.022681,0.0080645,0.0055444,0.0055444,0.0035282,0.0080645,0.010585,0.012601,0.019657,0.0050403,0.0020161,0.0045363,0.016633,0.021169,0.0085685,0.0040323,0.019153,0.0095766,0.0080645,0.018145,0.0030242,0.018145,0.025706,0.010585,0.0065524,0.014113,0.011089,0.010081,0.0065524,0.0090726,0.014113,0.0055444
0,0,0,0.004902,0.022059,0.004902,0.004902,0.012255,0.019608,0.019608,0,0,0,0,0.002451,0,0.026961,0.026961,0.053922,0,0.014706,0,0.029412,0.002451,0.002451,0.0073529,0.0073529,0.002451,0.0098039,0.004902,0.002451,0.0073529,0.004902,0.004902,0.004902,0,0.053922,0,0.019608,0.0098039,0.019608,0.002451,0.002451,0.0098039,0.004902,0.002451,0,0.002451,0,0,0.031863,0.004902,0,0.002451,0,0.004902,0.019608,0,0.0098039,0,0,0.002451,0.017157,0.004902,0.014706,0.0098039,0.0073529,0.004902,0.0098039,0.002451,0.012255,0.002451,0.002451,0.004902,0.0098039,0.0098039,0,0.014706,0,0.063725,0.017157,0.0098039,0.002451,0.004902,0.019608,0.11765,0.0098039,0.022059,0.0098039,0.022059,0,0.017157,0.004902,0.017157,0.004902,0,0.002451,0.004902,0.012255,0.002451
0.0078125,0.0044643,0.0089286,0.03683,0.0044643,0.0033482,0.010045,0.018973,0.013393,0.010045,0.016741,0.0055804,0.011161,0.0033482,0.010045,0.0055804,0.012277,0.024554,0.0055804,0.0033482,0.0044643,0.024554,0.0066964,0.016741,0.0066964,0.013393,0.010045,0.0066964,0.0055804,0.0055804,0.014509,0.0022321,0.0089286,0.0078125,0.0033482,0.0022321,0.026786,0.0011161,0.020089,0.0055804,0.0089286,0.0033482,0.0055804,0.020089,0.0078125,0.0089286,0.0022321,0.0044643,0.010045,0.011161,0.0078125,0.011161,0.0033482,0.010045,0.0078125,0,0.012277,0.0055804,0.0078125,0.0066964,0.0089286,0.0022321,0.0066964,0.010045,0.016741,0.018973,0.0066964,0.0066964,0.011161,0.023438,0.021205,0.016741,0.012277,0.0089286,0.012277,0.0022321,0.0089286,0.0066964,0.0089286,0.026786,0.0078125,0.034598,0.0044643,0.0089286,0.0022321,0.0011161,0.015625,0.022321,0.0066964,0.0011161,0.010045,0.026786,0.0078125,0.015625,0.0044643,0.0066964,0.0055804,0.0033482,0.010045,0.0033482
0.010811,0,0.016216,0.010811,0.0054054,0.016216,0,0.021622,0.010811,0,0.0054054,0,0.010811,0,0.027027,0.043243,0.027027,0.037838,0.0054054,0.0054054,0.010811,0.0054054,0,0.032432,0.0054054,0.016216,0.037838,0.0054054,0,0.010811,0.010811,0,0.021622,0,0.0054054,0.016216,0.016216,0.010811,0.010811,0.0054054,0,0.016216,0.0054054,0.0054054,0.032432,0.0054054,0.0054054,0,0.027027,0.037838,0.0054054,0.010811,0,0.0054054,0,0,0,0.0054054,0.010811,0,0.032432,0,0.010811,0.027027,0,0,0.0054054,0.016216,0,0,0.0054054,0.0054054,0,0.016216,0.021622,0.0054054,0.0054054,0,0.016216,0.010811,0.010811,0.010811,0.0054054,0,0,0,0.027027,0.0054054,0,0,0.010811,0.032432,0.016216,0.010811,0,0.0054054,0,0.016216,0.021622,0
0.0042735,0.0064103,0.025641,0.029915,0.012821,0.010684,0.0064103,0.017094,0.008547,0.012821,0.008547,0.0064103,0,0.0042735,0.008547,0.0064103,0.010684,0.023504,0.021368,0,0.010684,0.0021368,0.0064103,0.008547,0.032051,0.023504,0.0064103,0.0042735,0.0021368,0.0064103,0.034188,0.0042735,0.010684,0.017094,0,0.0042735,0.014957,0,0.019231,0.0021368,0.008547,0.012821,0.008547,0,0.025641,0.008547,0.0021368,0.0064103,0.017094,0.021368,0.014957,0.0021368,0.0042735,0.017094,0.0042735,0.0021368,0,0.0042735,0.0064103,0.010684,0.0042735,0.0042735,0.012821,0.0042735,0.008547,0.0021368,0.0064103,0.014957,0.012821,0.008547,0.019231,0.012821,0.010684,0.014957,0.008547,0.017094,0.014957,0,0.0042735,0.012821,0.017094,0.027778,0.0042735,0.0021368,0.0064103,0.0021368,0.0064103,0.023504,0.0021368,0,0.019231,0.021368,0.012821,0.014957,0,0.0021368,0.0021368,0.017094,0.010684,0.0021368
0.010309,0.020619,0,0.051546,0,0.010309,0.030928,0.010309,0,0.010309,0,0,0,0,0,0.010309,0,0.041237,0,0,0.010309,0.020619,0,0.041237,0.010309,0.010309,0.082474,0,0,0,0.020619,0,0,0,0.010309,0,0,0,0.010309,0.010309,0,0,0,0,0,0.051546,0,0,0.010309,0.020619,0,0.061856,0,0,0,0,0.010309,0,0.061856,0,0.010309,0.010309,0,0.010309,0.020619,0,0,0,0,0,0.010309,0,0.010309,0.020619,0.020619,0.010309,0,0,0.010309,0.010309,0.030928,0.020619,0.010309,0.010309,0,0.010309,0.010309,0,0,0,0.010309,0.010309,0,0.010309,0,0,0,0,0,0.092784
0,0,0.017341,0.023121,0,0.0057803,0.0057803,0.040462,0,0.0057803,0,0,0.0057803,0,0.011561,0,0.023121,0,0,0,0,0.0057803,0.0057803,0,0.023121,0.046243,0.0057803,0.0057803,0.0057803,0,0.028902,0,0.017341,0,0.0057803,0,0.011561,0.0057803,0,0.0057803,0.0057803,0.011561,0.017341,0.0057803,0.023121,0,0,0.0057803,0.011561,0.0057803,0.0057803,0,0,0.028902,0,0.011561,0.0057803,0,0,0,0,0,0.011561,0,0.052023,0,0.0057803,0.017341,0.034682,0,0,0.017341,0.0057803,0.017341,0.017341,0,0.034682,0.0057803,0,0.0057803,0.017341,0.052023,0.011561,0,0.040462,0.011561,0.011561,0.017341,0,0.017341,0.057803,0.011561,0,0,0.023121,0,0.0057803,0.011561,0.028902,0.0057803
0.019231,0,0,0,0.096154,0,0,0,0.038462,0,0.076923,0.019231,0,0,0.038462,0,0.019231,0,0,0,0,0,0,0,0.019231,0,0,0.019231,0,0,0.019231,0,0.019231,0,0,0,0.019231,0,0.019231,0.019231,0,0,0.019231,0,0.019231,0.019231,0,0.019231,0,0,0,0,0.076923,0.019231,0,0,0,0,0,0.038462,0.019231,0,0.019231,0.019231,0.019231,0,0.019231,0,0,0,0.057692,0,0,0,0,0,0.019231,0,0.019231,0,0,0,0,0,0,0,0.11538,0,0,0,0,0,0,0,0,0,0.019231,0,0,0.019231
0,0.013889,0.083333,0.013889,0.041667,0,0.013889,0,0.013889,0,0,0,0,0,0.013889,0,0.027778,0.013889,0,0,0,0,0.013889,0.027778,0,0.013889,0,0,0.013889,0.027778,0,0.027778,0.013889,0.013889,0,0,0,0,0.041667,0.013889,0,0.013889,0.027778,0.027778,0,0.013889,0,0,0.013889,0.027778,0,0,0,0.013889,0.013889,0,0,0,0,0.013889,0,0,0.027778,0.027778,0.013889,0,0,0,0.013889,0,0.041667,0,0,0.013889,0.027778,0,0.013889,0.013889,0,0.013889,0,0.013889,0.013889,0,0,0.013889,0.097222,0,0,0,0.027778,0,0,0,0,0,0,0,0.013889,0
0.0080321,0.0080321,0,0.016064,0.02008,0.0040161,0.0040161,0.0080321,0.044177,0.016064,0.02008,0.0080321,0.0040161,0,0.044177,0.0080321,0.0080321,0.024096,0.0040161,0,0.0080321,0,0,0.0080321,0.012048,0.0080321,0,0.0080321,0,0.0080321,0.0080321,0.0040161,0.02008,0.02008,0.0040161,0.012048,0.028112,0.0080321,0.028112,0.0040161,0.024096,0.028112,0.0080321,0,0.0040161,0.0080321,0,0.012048,0.016064,0.0040161,0.012048,0.0040161,0.0080321,0.016064,0,0,0.0040161,0,0,0,0.0080321,0,0.028112,0.012048,0.016064,0.012048,0.0080321,0.012048,0.012048,0.0080321,0.024096,0,0.012048,0.0040161,0.028112,0.012048,0.012048,0.0040161,0,0.02008,0,0.0040161,0.0080321,0,0.0040161,0.0040161,0.024096,0.0080321,0.0040161,0.0040161,0.0040161,0.0040161,0.0080321,0.0080321,0.012048,0.0080321,0.0080321,0.012048,0.056225,0
0.0063337,0.0085262,0.012911,0.009257,0.0058465,0.016809,0.0046285,0.0075518,0.0070646,0.0026797,0.0087698,0.021681,0.01486,0.014616,0.0041413,0.0077954,0.006821,0.011937,0.0041413,0.0090134,0.0041413,0.006821,0.012667,0.010475,0.0065773,0.0036541,0.0099878,0.015591,0.020706,0.016322,0.006821,0.006821,0.0046285,0.0060901,0.019245,0.0048721,0.0099878,0.02363,0.009257,0.0077954,0.0046285,0.0075518,0.015834,0.0073082,0.0043849,0.008039,0.0019488,0.026066,0.0043849,0.0026797,0.0070646,0.006821,0.011449,0.0097442,0.0060901,0.021681,0.0099878,0.0019488,0.010231,0.012911,0.0073082,0.0058465,0.0058465,0.0063337,0.009257,0.006821,0.006821,0.0070646,0.013642,0.0085262,0.010231,0.013155,0.0087698,0.0031669,0.011206,0.0031669,0.0075518,0.006821,0.026553,0.0075518,0.0048721,0.016322,0.010719,0.0073082,0.024361,0.020706,0.010962,0.009257,0.0038977,0.017783,0.013398,0.0073082,0.0070646,0.0077954,0.022655,0.022412,0.008039,0.018514,0.011449,0.0073082
0.010845,0.0086524,0.0096006,0.010786,0.0036743,0.00563,0.0018371,0.0058078,0.0086524,0.0049188,0.0087709,0.0059855,0.025839,0.069871,0.0096006,0.019853,0.0035558,0.0090079,0.0010667,0.061041,0.0036743,0.016594,0.010667,0.018016,0.006993,0.0074671,0.019735,0.010786,0.0043854,0.0061633,0.006993,0.012979,0.0053929,0.0032002,0.0080597,0.0062819,0.0064004,0.0033187,0.0063411,0.012504,0.0026076,0.0074671,0.0057485,0.009482,0.0049188,0.01286,0.0021927,0.0079412,0.0059263,0.0063411,0.0026076,0.03621,0.010312,0.010786,0.012327,0.0039706,0.010727,0.0025483,0.014342,0.01209,0.0081783,0.010667,0.0043262,0.0066967,0.0050966,0.01203,0.0091265,0.0045632,0.0078819,0.024001,0.006756,0.0086524,0.0081783,0.0018371,0.0077634,0.0016001,0.0062226,0.010904,0.025187,0.0063411,0.0039113,0.0069337,0.0083561,0.010667,0.0020149,0.011497,0.0074078,0.0029039,0.011023,0.012504,0.0097784,0.017601,0.010727,0.0049188,0.004504,0.0041484,0.010608,0.0072301,0.0043262,0.03058
0.0047319,0.008938,0.0078864,0.0063091,0.0063091,0.012093,0.0015773,0.0073607,0.014196,0.011567,0.0052576,0.0047319,0.0084122,0.0099895,0.011041,0.0015773,0.0099895,0.012093,0.0036803,0.002103,0.0063091,0.0015773,0.016299,0.021556,0.0094637,0.012618,0.011041,0.0042061,0.0068349,0.0042061,0.016299,0.0047319,0.019979,0.016824,0.0099895,0.0026288,0.014196,0.0094637,0.011041,0.0068349,0.010515,0.0042061,0.0073607,0.016824,0.010515,0.0057834,0.0010515,0.010515,0.0052576,0.0078864,0.011567,0.021556,0.0042061,0.012618,0.0042061,0.01367,0.011567,0.0015773,0.0084122,0.0073607,0.0031546,0.008938,0.016824,0.0047319,0.0094637,0.0057834,0.0052576,0.01367,0.028391,0.0073607,0.0063091,0.0036803,0.0031546,0.0031546,0.0099895,0.0063091,0.0031546,0.0036803,0.0031546,0.016299,0.0073607,0.01735,0.0084122,0.0063091,0.022608,0.02103,0.016299,0.028917,0.0026288,0.02103,0.019979,0.016299,0.0057834,0.01367,0.02103,0.011041,0.010515,0.0078864,0.033649,0.013144
0.010309,0.041237,0,0.051546,0.010309,0.030928,0,0.010309,0,0,0,0,0,0.010309,0.020619,0.010309,0.010309,0.051546,0,0,0,0,0.010309,0.041237,0.010309,0,0.020619,0.010309,0,0,0.010309,0,0.010309,0.020619,0.010309,0.030928,0.010309,0,0,0,0.010309,0,0,0.010309,0.030928,0.020619,0,0.020619,0,0.020619,0,0,0.010309,0,0,0,0.010309,0,0.010309,0.010309,0.020619,0,0.010309,0,0.030928,0,0.010309,0.010309,0.010309,0.010309,0,0.010309,0,0,0.010309,0.020619,0,0.010309,0.010309,0.010309,0.010309,0.041237,0,0,0.010309,0.041237,0.010309,0.010309,0,0,0.030928,0,0.020619,0,0.010309,0.010309,0.010309,0.010309,0.010309,0
0,0.0088106,0.028634,0.0044053,0.0088106,0.0022026,0.0088106,0.0066079,0.019824,0.011013,0.0044053,0.0044053,0.0022026,0.0022026,0.011013,0.0044053,0.0022026,0.0044053,0.0066079,0,0.0022026,0.0022026,0.022026,0.0088106,0.011013,0.013216,0.0066079,0.0088106,0.011013,0.0066079,0.0088106,0.0088106,0.0022026,0.013216,0.015419,0.0066079,0.019824,0.0022026,0.0022026,0.0044053,0.013216,0.0088106,0.013216,0.019824,0.0066079,0.0022026,0.0022026,0.017621,0.0022026,0.0066079,0.0088106,0.015419,0.0044053,0.011013,0.0022026,0.0066079,0.0066079,0.0088106,0.011013,0.0088106,0,0,0.013216,0.019824,0.011013,0,0,0.013216,0.024229,0.0022026,0.0066079,0.0022026,0,0.0066079,0.0066079,0.011013,0.011013,0.0044053,0.0044053,0.0088106,0.022026,0.013216,0.017621,0.0022026,0.017621,0.068282,0.024229,0.0066079,0.0088106,0.061674,0.0044053,0.044053,0,0.0088106,0.015419,0.0066079,0.0044053,0.0044053,0.013216,0.017621
0.0051151,0.0051151,0.02046,0.0051151,0.0025575,0.0025575,0.0076726,0.01023,0.0076726,0.01023,0.0025575,0.0051151,0.0025575,0,0.01023,0.0051151,0.0076726,0.012788,0,0,0.0076726,0.0051151,0.015345,0.015345,0.012788,0.0076726,0.023018,0.0025575,0.0076726,0,0.012788,0.0051151,0.017903,0.01023,0.0025575,0.0025575,0.012788,0.0076726,0.012788,0.015345,0.012788,0.0076726,0.012788,0.02046,0.0025575,0.0076726,0,0.01023,0.012788,0.012788,0.017903,0.040921,0.01023,0.01023,0.0051151,0.01023,0.030691,0,0.012788,0.0051151,0.0025575,0,0.017903,0.0076726,0.02046,0.01023,0.0025575,0.012788,0.02046,0.0076726,0.017903,0.0025575,0.0025575,0.012788,0.017903,0,0.0051151,0.015345,0.0051151,0.012788,0.02046,0.012788,0.0051151,0.0025575,0.017903,0.012788,0.0076726,0.02046,0.017903,0.017903,0.025575,0.017903,0.0051151,0.012788,0.0076726,0.0051151,0,0.0076726,0.012788,0.012788
0.0057068,0.0044729,0.0064009,0.0026992,0.0020051,0.037248,0.0011568,0.0030076,0.001928,0.0010797,0.00053983,0.040719,0.0094085,0.016118,0.0040102,0.0063237,0.0030848,0.0033932,0.001311,0.024138,0.0022364,0.015964,0.015732,0.0029305,0.0020051,0.0024678,0.0024678,0.010334,0.040873,0.010797,0.0050127,0.00046271,0.0029305,0.0030076,0.033855,0.0017737,0.0047042,0.060461,0.0020051,0.0010025,0.0042415,0.0023907,0.021902,0.0027763,0.0015424,0.0035475,7.7119e-05,0.040565,0.0015424,0.0016195,0.0047042,0.0015424,0.011722,0.00092543,0.00015424,0.053135,0.0010025,0.00023136,0.0022364,0.014267,0.0067093,0.00046271,0.0033932,0.0014653,0.0027763,0.00046271,0.010334,0.0049356,0.012725,0.0029305,0.0023907,0.017429,0.013804,0.0015424,0.0027763,0.0028534,0.0015424,0.0011568,0.0074805,0.0025449,0.0022364,0.0079432,0.0057839,0.0010025,0.044575,0.060538,0.003239,0.0034703,0.00023136,0.017429,0.014653,0.0038559,0.0043958,0.0015424,0.059844,0.056451,0.0022364,0.036014,0.0075576,0.0013881
0.0064655,0.032328,0.0043103,0.001347,0.0037716,0.002694,0.0029634,0.0021552,0.01805,0.0040409,0.030981,0.0040409,0.0032328,0.00053879,0.0040409,0.027209,0.0043103,0.0051185,0.0045797,0.0056573,0.0061961,0.0045797,0.017241,0.0029634,0.00053879,0.001347,0.0032328,0.0037716,0.0024246,0.0024246,0.0053879,0.014817,0.0040409,0.0051185,0.0035022,0.0053879,0.0029634,0.002694,0.0083513,0.015356,0.0072737,0.0024246,0.0043103,0.021282,0.0029634,0.0024246,0.0061961,0.0016164,0.0032328,0.0078125,0.01805,0.0021552,0.00080819,0.041218,0.10749,0.002694,0.015894,0.011584,0.016433,0.0024246,0.0067349,0.033944,0.0056573,0.0018858,0.0061961,0.021821,0.014009,0.0056573,0.0048491,0.0002694,0.0080819,0.0043103,0.010506,0.002694,0.0051185,0.0064655,0.0029634,0.027209,0.0075431,0.0032328,0.0053879,0.0018858,0.021013,0.037985,0.0040409,0.0051185,0.0040409,0.010506,0.047683,0.0043103,0.0045797,0.014547,0.0094289,0.010776,0.0053879,0.010776,0.038793,0.0072737,0.0078125,0.011045
0.011728,0.0093823,0.017201,0.0015637,0.0070367,0.012119,0.011728,0.0070367,0.0093823,0.0031274,0.011728,0.017592,0.0046912,0.0097733,0.010555,0.022674,0.010555,0.0078186,0.0050821,0.0093823,0.0043002,0.013683,0.021501,0.0078186,0.0062549,0.0070367,0.0062549,0.012119,0.0066458,0.020328,0.0066458,0.005864,0.0070367,0.0062549,0.010946,0.010946,0.0086005,0.010164,0.014464,0.0097733,0.0078186,0.014073,0.0089914,0.014073,0.0070367,0.005473,0.0066458,0.016028,0.0074277,0.0074277,0.010946,0.0046912,0.012901,0.014855,0.0046912,0.010555,0.0035184,0.015637,0.0078186,0.014464,0.0074277,0.00078186,0.005473,0.0070367,0.011337,0.0023456,0.017983,0.005864,0.0066458,0.0074277,0.012901,0.01251,0.013683,0.010946,0.0062549,0.005473,0.014855,0.0086005,0.014464,0.0039093,0.0066458,0.0074277,0.012901,0.005864,0.0062549,0.011337,0.0086005,0.015637,0.016028,0.014855,0.010555,0.022283,0.01251,0.0050821,0.01251,0.015637,0.019156,0.013683,0.010164,0.0050821
0.0029339,0.0088016,0.010833,0.0051907,0.0069962,0.012638,0.0088016,0.012413,0.0097044,0.0097044,0.0060934,0.011961,0.0036109,0.0011284,0.0054164,0.0027082,0.010381,0.004965,0.018506,0.0015798,0.011058,0.0038366,0.020763,0.0074475,0.00993,0.0090273,0.0090273,0.0067705,0.016475,0.004965,0.010833,0.0058677,0.0081246,0.014444,0.013315,0.010607,0.0058677,0.019634,0.0074475,0.0094787,0.016926,0.010381,0.010607,0.027759,0.009253,0.0027082,0.0036109,0.013541,0.0051907,0.0058677,0.020763,0.0065448,0.0036109,0.012864,0.0031596,0.019409,0.011961,0.0063191,0.0072218,0.0069962,0.0040623,0.0033852,0.0094787,0.0097044,0.011961,0.010381,0.0045137,0.0094787,0.013767,0.0038366,0.0051907,0.0088016,0.004288,0.0060934,0.0047393,0.014218,0.009253,0.0069962,0.0074475,0.0040623,0.012413,0.012187,0.0094787,0.0024825,0.020988,0.025954,0.01151,0.018732,0.030241,0.010607,0.012864,0.030693,0.0051907,0.010381,0.024599,0.016249,0.0058677,0.010833,0.010381,0.0027082
0.031034,0.0068966,0.0034483,0.0034483,0.010345,0,0.031034,0.013793,0.0068966,0.0034483,0.017241,0.0068966,0,0,0.0034483,0.062069,0.010345,0.0034483,0.013793,0,0.0034483,0.0034483,0,0,0.0068966,0.0068966,0.0034483,0.0034483,0.0034483,0,0.0034483,0.02069,0.0068966,0.013793,0.0068966,0.010345,0.0068966,0,0.034483,0.02069,0.0068966,0.0034483,0,0.0034483,0,0,0,0.0034483,0,0.010345,0.013793,0.010345,0.0034483,0.010345,0.013793,0,0.0034483,0.0034483,0.0068966,0.013793,0.0068966,0.017241,0.0068966,0,0.017241,0.02069,0.044828,0.0034483,0.0034483,0,0.027586,0.0034483,0,0.031034,0.0068966,0.02069,0.0034483,0.017241,0.024138,0.0068966,0.0068966,0.0034483,0.013793,0.0034483,0,0,0,0.024138,0.058621,0.0068966,0.0034483,0.02069,0.0068966,0.0068966,0,0,0.082759,0,0,0.010345
0.0095238,0.0063492,0.057143,0,0.025397,0.0031746,0,0,0.019048,0.0063492,0.050794,0,0,0,0.0031746,0,0.022222,0.0031746,0.015873,0,0.0063492,0,0.012698,0.0031746,0,0.0095238,0.0063492,0.0063492,0,0.0063492,0.0095238,0.038095,0.0095238,0,0.0063492,0.012698,0.0031746,0,0.012698,0.015873,0.012698,0.015873,0.0063492,0.0063492,0.012698,0,0.0063492,0,0.0031746,0.0063492,0.022222,0.022222,0,0.012698,0.038095,0.0063492,0.019048,0.034921,0.0031746,0.0063492,0,0,0.0063492,0.015873,0.012698,0.022222,0.0063492,0.0031746,0.0031746,0,0.015873,0.0063492,0.0063492,0,0.0031746,0.0063492,0.028571,0.019048,0,0.022222,0.0031746,0.0095238,0.0031746,0.015873,0,0.019048,0.015873,0.015873,0.0063492,0.025397,0.0063492,0.025397,0.0031746,0.012698,0.0063492,0.0095238,0.0031746,0,0.0031746,0.022222
0.012363,0.0048077,0.010989,0.0013736,0.014423,0.0041209,0.04739,0.0020604,0.0034341,0.0096154,0.011676,0.0082418,0.0082418,0.0048077,0.00068681,0.0068681,0.013736,0.0054945,0.019231,0.0096154,0.0061813,0.0020604,0.0041209,0,0.0082418,0.013049,0.0054945,0.0041209,0.00068681,0.010989,0.0054945,0.020604,0.0020604,0.00068681,0.0020604,0.01511,0,0.0020604,0.0075549,0.022665,0.0054945,0.017857,0.00068681,0.07967,0.011676,0.0068681,0.059066,0.0027473,0.013736,0.01511,0.0075549,0.0020604,0.0034341,0.0061813,0.010989,0,0.0061813,0.054945,0.0054945,0.0061813,0.0013736,0.019918,0.0020604,0.018544,0.0041209,0.0075549,0.011676,0.0013736,0.0020604,0.0034341,0.0061813,0.0034341,0.0020604,0.041209,0.010302,0.0075549,0.028846,0.0089286,0.019918,0.0013736,0.0048077,0.0041209,0.0048077,0.010989,0,0.0041209,0.0048077,0.0048077,0.041209,0.0013736,0.0020604,0.019918,0.0054945,0.010989,0.00068681,0.0020604,0.010302,0.0027473,0.0013736,0.013049
0,0,0.010309,0,0.030928,0,0.061856,0,0.030928,0,0,0,0,0,0,0,0.030928,0,0.010309,0,0,0,0.010309,0.010309,0.010309,0,0,0,0,0,0.010309,0,0.020619,0.020619,0.010309,0.030928,0.020619,0.010309,0.041237,0.010309,0,0.030928,0.010309,0.010309,0,0.010309,0.020619,0,0.051546,0.020619,0.010309,0,0.010309,0.020619,0,0.010309,0,0,0,0,0.020619,0,0.010309,0,0.072165,0,0,0,0.010309,0.010309,0.030928,0,0,0.061856,0,0.010309,0.020619,0.010309,0,0.020619,0,0,0,0,0,0,0.030928,0,0.030928,0.020619,0.010309,0,0,0,0.010309,0,0,0.020619,0.010309,0
0.0064995,0.003714,0.027855,0.007428,0.016713,0.00092851,0.012999,0.005571,0.012999,0.0027855,0.032498,0.001857,0.001857,0.00092851,0.001857,0.003714,0.012071,0.0064995,0.005571,0.0027855,0.0027855,0.005571,0.014856,0.0046425,0.0064995,0.012071,0.001857,0.001857,0.005571,0.005571,0.0046425,0.039926,0.0027855,0.00092851,0.007428,0.007428,0.011142,0.0083565,0.0027855,0.017642,0.003714,0.010214,0.0046425,0.024141,0.010214,0.0027855,0.035283,0.005571,0.010214,0.012071,0.005571,0.035283,0.001857,0.0083565,0,0.010214,0.013928,0.030641,0.005571,0.003714,0.00092851,0.0046425,0.003714,0.012999,0.0092851,0.078923,0.001857,0.001857,0.017642,0.005571,0.007428,0.001857,0,0.016713,0.012999,0.0027855,0.012071,0.010214,0,0.0064995,0.005571,0.012071,0,0.00092851,0.0083565,0.031569,0.024141,0.0064995,0.038069,0.010214,0.012071,0.02507,0.0046425,0.0046425,0.020427,0.0092851,0.003714,0.003714,0.0027855,0.0027855
0.010101,0.0025253,0.0050505,0,0.027778,0.017677,0.0050505,0.0050505,0.0075758,0.0025253,0.020202,0.0050505,0,0.0025253,0.0075758,0,0.035354,0.0075758,0.0025253,0,0,0.017677,0.035354,0.0050505,0.015152,0.017677,0.0025253,0.015152,0.017677,0.0050505,0.015152,0.012626,0.0075758,0.010101,0.012626,0.010101,0.0075758,0.010101,0.0075758,0,0.0025253,0.012626,0.0050505,0.010101,0.015152,0.0050505,0.010101,0.015152,0.027778,0.017677,0.010101,0,0.0075758,0.0050505,0,0.017677,0.0050505,0.032828,0.0050505,0.0025253,0.012626,0,0.012626,0.015152,0.0075758,0.032828,0,0.0025253,0.0050505,0.010101,0.022727,0.015152,0.0050505,0.012626,0.0050505,0.0075758,0,0,0,0.0025253,0.0025253,0.0050505,0.0075758,0,0.017677,0.09596,0.017677,0,0.0025253,0.0050505,0.0050505,0.0050505,0.0025253,0.0025253,0.022727,0.017677,0,0.0050505,0.012626,0.0075758
0.0096017,0.007468,0.021159,0.0085349,0.0048009,0.014047,0.004623,0.0078236,0.0051565,0.0048009,0.003734,0.019203,0.0097795,0.0078236,0.0099573,0.0078236,0.0048009,0.0064011,0.0033784,0.0085349,0.0048009,0.014758,0.016536,0.0071124,0.0048009,0.0039118,0.0081792,0.015647,0.020982,0.016536,0.0064011,0.0032006,0.0030228,0.0080014,0.019026,0.004623,0.0096017,0.018314,0.0072902,0.0071124,0.0051565,0.0081792,0.017959,0.0053343,0.0035562,0.0081792,0.0040896,0.020092,0.0030228,0.0051565,0.0078236,0.0078236,0.016714,0.0064011,0.0032006,0.024182,0.0090683,0.008357,0.010669,0.015825,0.0096017,0.016003,0.002845,0.0064011,0.0069346,0.0049787,0.0092461,0.0060455,0.019737,0.0085349,0.0064011,0.013869,0.012269,0.0040896,0.0072902,0.0033784,0.0062233,0.0080014,0.010313,0.0058677,0.0064011,0.014047,0.013158,0.0081792,0.01867,0.030761,0.0062233,0.0055121,0.0065789,0.037518,0.018137,0.01298,0.012269,0.0035562,0.027383,0.017248,0.0055121,0.015114,0.007468,0.0051565
0.015385,0,0.023077,0,0.046154,0,0,0,0,0,0,0.0076923,0,0.0076923,0,0.023077,0.069231,0,0,0,0,0,0,0.030769,0.015385,0.023077,0.023077,0.015385,0,0.015385,0.0076923,0.0076923,0,0.0076923,0,0.061538,0,0,0.015385,0.023077,0,0.023077,0,0,0.015385,0.015385,0.038462,0,0.015385,0,0.015385,0.0076923,0,0,0.030769,0,0,0.046154,0.0076923,0.0076923,0,0.0076923,0,0.030769,0,0.015385,0,0,0.015385,0.0076923,0.015385,0.0076923,0.0076923,0.0076923,0,0,0.0076923,0.023077,0.015385,0.0076923,0.015385,0.0076923,0.015385,0.046154,0,0,0.015385,0,0.023077,0,0,0.0076923,0.0076923,0,0,0,0.0076923,0,0,0.023077
0.0023419,0.018735,0.014052,0.0046838,0.01171,0.0023419,0.0023419,0,0.014052,0.016393,0.028103,0.0023419,0,0.0023419,0.0023419,0.0070258,0.01171,0.0046838,0.021077,0,0.0070258,0.0093677,0.018735,0.0070258,0,0,0.0070258,0.0023419,0.0093677,0.01171,0,0.0046838,0.0046838,0,0.0046838,0.0093677,0.01171,0.0023419,0.01171,0.028103,0.01171,0.0070258,0,0.01171,0,0,0.023419,0.0023419,0.0046838,0.0070258,0.0070258,0.0046838,0.0046838,0.014052,0.028103,0.0023419,0.0093677,0.014052,0.016393,0.0046838,0.0046838,0.025761,0.0070258,0.0093677,0.0046838,0.0046838,0.01171,0.023419,0.0023419,0,0.030445,0,0.0023419,0.0046838,0.0023419,0.0046838,0,0.053864,0.0070258,0.023419,0.021077,0,0.032787,0.042155,0.0023419,0.01171,0.0070258,0.018735,0.0070258,0.021077,0.0046838,0.01171,0,0.023419,0.01171,0.016393,0.023419,0.0093677,0,0.023419
0,0.013333,0.04,0,0.026667,0.0066667,0.0066667,0,0,0,0,0.013333,0,0.0066667,0.0066667,0.013333,0.026667,0,0,0,0,0,0.02,0.013333,0,0.013333,0.02,0.0066667,0,0.04,0,0.033333,0.013333,0,0,0.02,0.02,0,0.013333,0.02,0,0.026667,0,0,0,0,0.0066667,0,0.0066667,0.013333,0,0.0066667,0,0.0066667,0.02,0,0.013333,0,0.0066667,0.02,0.0066667,0.0066667,0.013333,0.02,0.0066667,0.013333,0.013333,0.026667,0,0,0.013333,0,0.013333,0,0,0,0.0066667,0.013333,0.033333,0.026667,0,0,0.02,0.0066667,0.013333,0.026667,0.0066667,0.013333,0.033333,0.046667,0,0.046667,0.013333,0.0066667,0,0,0.0066667,0.013333,0,0.013333
0.0047739,0.012075,0.016288,0.0050548,0.006178,0.0080034,0.0025274,0.0091266,0.0092671,0.015164,0.01699,0.0088458,0.0043527,0.0022466,0.0056164,0.0063184,0.0047739,0.0047739,0.016709,0.0014041,0.0082842,0.0071609,0.027661,0.011373,0.0071609,0.010671,0.0098287,0.0063184,0.0096883,0.0089862,0.0065993,0.010952,0.0084246,0.0091266,0.0087054,0.0081438,0.0098287,0.0092671,0.0053356,0.0088458,0.010531,0.0094075,0.01025,0.022185,0.0063184,0.0089862,0.0056164,0.0099691,0.0077225,0.0070205,0.016568,0.018394,0.0060376,0.015445,0.012918,0.016147,0.020781,0.0070205,0.0082842,0.0071609,0.005476,0.0035102,0.007863,0.0081438,0.0089862,0.015445,0.0073013,0.0096883,0.011233,0.0043527,0.0060376,0.0074417,0.0063184,0.0026678,0.0053356,0.01039,0.0089862,0.010671,0.0068801,0.0075821,0.0087054,0.0081438,0.011514,0.006178,0.011514,0.011514,0.0063184,0.017411,0.06164,0.014322,0.011233,0.021764,0.0068801,0.014181,0.015305,0.0099691,0.010531,0.0064589,0.0070205,0.005476
0,0,0,0,0.04902,0.019608,0,0,0,0.019608,0,0,0,0,0.019608,0,0.039216,0,0.11765,0,0.039216,0,0,0.0098039,0,0,0,0,0.029412,0.019608,0.0098039,0.019608,0,0.0098039,0.029412,0,0.0098039,0.0098039,0.0098039,0,0.04902,0,0.0098039,0,0,0,0,0.039216,0,0,0.04902,0,0.0098039,0,0,0.029412,0,0,0,0,0.0098039,0,0,0,0.029412,0.019608,0,0.0098039,0,0,0,0,0,0.0098039,0.019608,0.068627,0,0,0,0.0098039,0.0098039,0,0,0,0.019608,0,0.0098039,0.068627,0,0,0.019608,0,0,0.0098039,0.0098039,0.019608,0,0.0098039,0,0
0.0069005,0.0011501,0.0057504,0.0017251,0.00057504,0.030477,0.035078,0.0011501,0.0028752,0.0034503,0.0086256,0.027027,0.0046003,0.0057504,0.0034503,0.0046003,0.0057504,0.0017251,0.017251,0.0080506,0.0063255,0.0057504,0.0040253,0.00057504,0.0051754,0.012651,0.0017251,0.0063255,0.032777,0.0086256,0.0034503,0.014376,0.0040253,0.0040253,0.038528,0.011501,0.0034503,0.041403,0.0034503,0.00057504,0.012076,0.012076,0.0097757,0.0057504,0.0080506,0.0011501,0.019551,0.031627,0.0051754,0.017251,0.0097757,0.0069005,0.0063255,0.0034503,0.00057504,0.036803,0,0.032777,0.00057504,0.0092007,0.0051754,0,0.0040253,0.0092007,0.016101,0.0069005,0.0092007,0.0023002,0.0011501,0.0040253,0.0063255,0.0074756,0.012651,0.031627,0.0057504,0.0057504,0.012651,0.0011501,0.0011501,0.0028752,0.0069005,0.0034503,0.0074756,0.0051754,0.018401,0.021277,0.0069005,0.010351,0.014951,0.0069005,0.0057504,0.0023002,0.0034503,0.0046003,0.032202,0.052329,0.0011501,0.034503,0.0023002,0.00057504
0.0069869,0.011354,0.009607,0.0034934,0.0061135,0.00087336,0.01048,0.0069869,0.0061135,0.011354,0.019214,0.01048,0.011354,0.0069869,0.0034934,0.0087336,0.009607,0.0043668,0.011354,0.0026201,0.0043668,0.01048,0.0034934,0.0069869,0.00087336,0.0043668,0.015721,0.01048,0.00087336,0.0078603,0.0026201,0.033188,0.00087336,0.01048,0.0026201,0.021834,0.0043668,0.0017467,0.009607,0.017467,0.01048,0.020087,0.0026201,0.034934,0.0026201,0.014847,0.022707,0.0017467,0.0052402,0.009607,0.011354,0.014847,0.0069869,0.011354,0.0131,0.0017467,0.011354,0.024454,0.019214,0.0069869,0.0034934,0.014847,0.0017467,0.023581,0.0034934,0.020961,0.0069869,0,0.0043668,0.0061135,0.013974,0.0043668,0.0052402,0.01048,0.0034934,0.0069869,0.018341,0.0087336,0.030568,0.0026201,0.0052402,0.0043668,0.0087336,0.011354,0.0017467,0.044541,0.0043668,0.011354,0.028821,0.016594,0.0034934,0.045415,0.0061135,0.0061135,0.0026201,0.00087336,0.015721,0.0017467,0.00087336,0.011354
0.020548,0,0.013699,0.013699,0.034247,0.0068493,0.041096,0.041096,0.013699,0,0,0.0068493,0.0068493,0.027397,0,0.0068493,0.027397,0.013699,0,0.0068493,0,0,0,0,0.020548,0.020548,0.0068493,0.0068493,0.0068493,0.020548,0.0068493,0.047945,0.0068493,0,0.0068493,0.013699,0,0,0.027397,0,0,0.0068493,0.0068493,0,0.0068493,0.0068493,0,0.013699,0.020548,0.020548,0,0,0.020548,0.013699,0,0,0,0.0068493,0.0068493,0,0.0068493,0,0,0.0068493,0.054795,0.013699,0.020548,0,0.020548,0.013699,0.020548,0.013699,0,0.041096,0.0068493,0,0.041096,0,0,0.013699,0,0.0068493,0.0068493,0,0,0.0068493,0.054795,0,0.0068493,0,0.020548,0.0068493,0.0068493,0,0,0,0.0068493,0,0,0
0.018868,0.018868,0.018868,0,0.018868,0,0.018868,0,0.018868,0,0.018868,0,0,0,0,0,0,0.037736,0,0,0,0,0,0,0.018868,0,0,0,0,0.018868,0,0.056604,0,0.018868,0,0,0,0,0.075472,0,0.018868,0.037736,0,0,0,0,0,0,0.018868,0,0,0.018868,0,0.037736,0,0,0,0,0,0,0,0,0.018868,0,0.037736,0.056604,0,0,0,0,0.075472,0,0,0,0.075472,0,0,0,0,0.037736,0,0.056604,0,0,0,0.037736,0,0,0,0,0,0.09434,0,0.018868,0,0,0,0,0,0
0.00079491,0.0063593,0.018283,0.0015898,0.0063593,0.0023847,0.011924,0,0.0039746,0.011924,0.028617,0.0023847,0.00079491,0,0.0031797,0.0047695,0.0079491,0.00079491,0.020668,0.00079491,0.0015898,0,0.026232,0.0015898,0.0071542,0.0015898,0.0015898,0.0023847,0.008744,0.00079491,0.0039746,0.020668,0.0039746,0.0039746,0.0047695,0.014308,0.0023847,0.0079491,0.0039746,0.017488,0.0063593,0.016693,0.00079491,0.027822,0.0015898,0.00079491,0.031002,0.0023847,0.0055644,0.0071542,0.0071542,0.036566,0.00079491,0.0055644,0.0469,0.015898,0.009539,0.073132,0.00079491,0,0.0023847,0.013514,0.008744,0.011129,0.0031797,0.016693,0.0031797,0.0015898,0.0031797,0.0015898,0.0071542,0,0.00079491,0.011924,0.0031797,0.00079491,0.009539,0.022258,0.00079491,0.0023847,0.0023847,0.00079491,0.0023847,0.024642,0.0063593,0.11447,0.0023847,0.012719,0.0079491,0.038951,0.0047695,0.033386,0,0.010334,0.015898,0.0063593,0.0047695,0.0063593,0.0023847,0.013514
0.0047619,0.019048,0,0.0095238,0.014286,0,0,0.0047619,0.014286,0.0095238,0.0095238,0.0095238,0.0095238,0.0095238,0.0047619,0.02381,0.014286,0.0095238,0,0.0047619,0.0047619,0.0095238,0,0.033333,0,0.014286,0.0047619,0.0047619,0.0047619,0.0047619,0,0.0095238,0.019048,0.0047619,0.014286,0.0047619,0.014286,0,0.047619,0,0.0095238,0,0.0095238,0.014286,0,0.019048,0,0.0095238,0,0,0,0.02381,0.0047619,0,0.042857,0,0.019048,0,0.042857,0.0095238,0.019048,0.02381,0.014286,0,0.019048,0,0.028571,0.0047619,0.0047619,0.0095238,0.014286,0.014286,0.0095238,0.0047619,0.019048,0.0095238,0,0.0095238,0.014286,0.0095238,0.0047619,0.0047619,0.0047619,0.014286,0,0,0,0.0047619,0,0,0,0.033333,0.0095238,0,0,0.0047619,0.014286,0,0,0.10476
0,0.0045249,0.0045249,0.013575,0,0.0181,0.0090498,0.0090498,0.0090498,0.0090498,0.0181,0.0045249,0.0090498,0.013575,0.0045249,0.031674,0.0045249,0.027149,0,0,0,0.0181,0.0045249,0.013575,0.0090498,0.0090498,0.022624,0.0090498,0.0045249,0,0.0045249,0.0045249,0,0,0.0045249,0.0045249,0,0.0045249,0.013575,0.0090498,0,0.0090498,0.0045249,0.054299,0.0090498,0.036199,0,0.0090498,0,0,0,0.0090498,0,0.0090498,0.031674,0.0045249,0.013575,0.0045249,0.0181,0.027149,0,0.022624,0.0045249,0.0090498,0.0090498,0.0181,0.013575,0.0045249,0.0181,0.0090498,0.0090498,0.0045249,0.0090498,0.013575,0.022624,0.0045249,0.013575,0.0181,0.036199,0,0,0.0045249,0.027149,0.027149,0,0,0,0,0,0.0181,0,0.036199,0,0,0.0045249,0,0.0045249,0.022624,0,0.049774
0.019934,0.0099668,0.019934,0.0066445,0,0.0033223,0,0.0099668,0.0099668,0,0.0066445,0.0066445,0.0033223,0.0066445,0.0066445,0.016611,0.0033223,0.016611,0.0033223,0.0099668,0.0033223,0,0,0.0033223,0,0.0066445,0.0033223,0.0033223,0,0.0066445,0,0,0,0.0033223,0,0.0033223,0.0099668,0,0.046512,0.0099668,0,0,0.0033223,0.0066445,0.0099668,0.0299,0,0.0033223,0.0066445,0,0.0033223,0.043189,0.0066445,0.0099668,0.1196,0.0033223,0.026578,0.0033223,0.0099668,0.0099668,0.0099668,0.069767,0.013289,0,0.026578,0.013289,0.016611,0.0066445,0.0033223,0.0099668,0.046512,0.0033223,0.0033223,0.0033223,0.0099668,0.0033223,0.0033223,0.016611,0.023256,0.0066445,0.013289,0.0066445,0.0033223,0.033223,0,0,0.016611,0.0033223,0.0033223,0.016611,0.0066445,0.0099668,0.0066445,0.0066445,0,0,0.016611,0,0.0066445,0.0066445
0.014019,0.0093458,0.0046729,0.0046729,0,0,0,0.028037,0,0.0046729,0.014019,0.014019,0,0,0.018692,0.0093458,0.0046729,0.0093458,0,0,0,0,0,0.028037,0.0046729,0,0.0046729,0,0,0.023364,0,0,0.0046729,0.0093458,0.023364,0.0046729,0.0093458,0,0.0093458,0.0046729,0,0.0093458,0,0.0093458,0.0093458,0.0046729,0,0.014019,0,0.0046729,0,0.0093458,0.0046729,0.0046729,0.042056,0,0,0,0.037383,0.0093458,0.018692,0.23832,0.0046729,0.0093458,0.014019,0,0.0046729,0,0.0046729,0.0093458,0.0093458,0.014019,0.014019,0.018692,0.03271,0.0046729,0,0.0093458,0.0093458,0.0046729,0.014019,0,0.023364,0.028037,0,0,0.0046729,0.0046729,0.0046729,0.0093458,0,0.0093458,0.023364,0,0,0,0.014019,0.0046729,0.0046729,0.014019
0.020492,0.0081967,0,0.0081967,0.020492,0.0040984,0.0081967,0.0081967,0.0040984,0.0040984,0.036885,0,0,0.0040984,0.016393,0.032787,0.020492,0.012295,0,0,0.012295,0.0040984,0.0040984,0.0040984,0,0.0081967,0.016393,0,0,0,0,0,0.012295,0,0,0.0081967,0.02459,0,0.0081967,0.04918,0.0040984,0.0040984,0,0.028689,0.0040984,0.012295,0,0,0.0040984,0.0081967,0.0040984,0.012295,0.02459,0.0040984,0.0081967,0,0.020492,0.0081967,0.016393,0.0040984,0.02459,0.028689,0.0081967,0.0081967,0.0040984,0.0040984,0.020492,0.012295,0,0.020492,0.016393,0.012295,0.0081967,0.0081967,0.0040984,0.0081967,0.0040984,0.053279,0.012295,0.036885,0.0040984,0.016393,0.012295,0.012295,0,0,0,0,0.016393,0,0,0.045082,0.0081967,0.0040984,0,0,0.012295,0.0040984,0.0081967,0.032787
0,0,0.018634,0.17391,0,0.0062112,0.012422,0.0062112,0.0062112,0,0,0,0,0,0.0062112,0.068323,0,0.0062112,0,0,0,0,0.031056,0,0,0,0,0,0,0,0,0.018634,0,0,0,0.0062112,0,0,0.055901,0,0,0,0,0.21118,0,0.012422,0,0,0,0,0,0,0.0062112,0,0,0,0.049689,0,0.0062112,0,0,0.0062112,0,0.0062112,0,0,0.062112,0,0,0,0.037267,0.062112,0.0062112,0.018634,0,0,0,0.012422,0,0,0,0,0,0.0062112,0.0062112,0.043478,0.012422,0,0,0,0.0062112,0.012422,0,0,0,0,0,0,0,0
0.0045249,0.0054299,0.0027149,0.028054,0.021719,0.00181,0.024434,0.0036199,0.0081448,0.0054299,0.0072398,0.0027149,0.00181,0.0027149,0.00090498,0.022624,0.021719,0.015385,0.028054,0.00181,0.0036199,0.0072398,0.0054299,0.00090498,0.0063348,0.01267,0.0045249,0.00181,0.0090498,0.0027149,0.0054299,0.021719,0.0072398,0.0027149,0.0045249,0.0181,0.0072398,0.0045249,0.027149,0.0045249,0.0063348,0.00181,0.00181,0.015385,0.015385,0.00181,0.0036199,0.0045249,0.0063348,0.0063348,0.0090498,0.0072398,0.0054299,0.0054299,0.020814,0.017195,0.0081448,0.0045249,0.0063348,0.0027149,0.00181,0.00181,0.0036199,0.011765,0.01448,0.0045249,0.023529,0.00090498,0.0036199,0.0090498,0.028054,0.015385,0.00090498,0.022624,0.0072398,0.0036199,0.0054299,0.00181,0.00090498,0.01086,0.0036199,0.0054299,0.00090498,0.0099548,0.0081448,0.042534,0.021719,0.0027149,0.051584,0.021719,0.0027149,0.082353,0.00181,0.00181,0.026244,0.0063348,0.0063348,0.0045249,0.0027149,0.0063348
0,0,0.005,0.01,0.005,0,0,0.035,0.03,0.02,0.01,0.005,0,0,0.015,0.03,0.005,0.005,0.005,0,0.03,0.005,0.005,0.025,0,0.01,0.02,0,0,0.01,0.005,0.005,0,0.005,0.005,0.01,0.01,0,0.005,0.01,0.005,0.005,0,0.04,0.02,0.025,0.01,0.02,0.01,0,0,0.015,0.01,0.015,0.03,0,0.03,0,0,0,0.035,0,0.02,0,0.06,0.015,0.025,0,0,0,0.005,0,0.005,0,0.015,0.01,0,0,0.005,0.005,0.015,0.005,0.005,0.015,0.005,0,0.02,0.015,0,0,0,0.025,0.005,0.035,0.005,0.005,0.03,0.01,0.005,0.025
0.017442,0.005814,0,0.005814,0.017442,0.017442,0.034884,0,0.011628,0,0,0.011628,0.005814,0.005814,0.023256,0.011628,0.011628,0.005814,0.011628,0,0.005814,0.005814,0.005814,0.017442,0.005814,0,0,0.005814,0.011628,0.011628,0.005814,0.005814,0.017442,0.005814,0.011628,0,0.023256,0,0.011628,0.011628,0.005814,0.005814,0,0.005814,0,0.011628,0,0.023256,0,0,0,0.011628,0,0.034884,0.05814,0.011628,0,0,0.005814,0,0.005814,0.040698,0.017442,0.005814,0,0.023256,0.023256,0,0.011628,0.011628,0.023256,0.005814,0,0.017442,0.023256,0.017442,0,0.011628,0.011628,0,0.017442,0.011628,0.005814,0.02907,0,0.023256,0.017442,0.017442,0.011628,0.005814,0,0,0.005814,0.023256,0,0.005814,0.011628,0.017442,0,0.011628
0,0,0.014184,0,0.042553,0.042553,0.0070922,0.042553,0.0070922,0,0.021277,0,0,0,0.014184,0,0.042553,0,0,0,0.035461,0.014184,0.0070922,0.0070922,0.0070922,0.014184,0.0070922,0,0,0,0,0.028369,0.014184,0,0.0070922,0.0070922,0.014184,0.0070922,0,0.028369,0.014184,0.0070922,0,0.021277,0.021277,0.014184,0.014184,0.021277,0,0.021277,0,0,0.0070922,0.014184,0.028369,0,0.0070922,0,0,0.014184,0.028369,0,0.014184,0,0.0070922,0.014184,0,0,0.0070922,0,0.0070922,0,0.035461,0,0,0.0070922,0.021277,0.028369,0,0.035461,0,0.035461,0.0070922,0.014184,0.0070922,0,0,0,0.0070922,0,0.021277,0.021277,0,0,0,0.0070922,0,0.035461,0,0
0.0088757,0.0029586,0.044379,0.011834,0.0059172,0,0.0029586,0,0.014793,0,0,0.0088757,0.0088757,0.0029586,0.0059172,0.0029586,0.0029586,0.0059172,0.0059172,0,0,0.011834,0.068047,0,0,0,0.0029586,0.011834,0.017751,0.026627,0.0029586,0,0.0059172,0.0059172,0.0059172,0.02071,0.0029586,0.02071,0.014793,0.0059172,0.014793,0.0059172,0.0088757,0,0,0.0059172,0.0059172,0.0029586,0.0059172,0.02071,0.017751,0.0059172,0.0059172,0.0029586,0.0029586,0.011834,0.0059172,0.0029586,0.0088757,0.0029586,0.0029586,0.0059172,0.011834,0.011834,0.0029586,0.0059172,0,0.0029586,0.0029586,0.026627,0.014793,0.011834,0.011834,0.0029586,0.0088757,0,0.0029586,0.0059172,0.038462,0.011834,0.0029586,0.0088757,0.0029586,0,0.0088757,0.16568,0.011834,0.0059172,0,0.017751,0.0059172,0,0.011834,0.0029586,0.017751,0.029586,0.0029586,0,0.02071,0
0.0058722,0.0055268,0.0037997,0.0044905,0.032815,0.0082902,0.016235,0.011054,0.0072539,0.0086356,0.018653,0.0086356,0.0058722,0.0017271,0.011054,0.0041451,0.035579,0.0079447,0.013817,0.0013817,0.0075993,0.0048359,0.015889,0.0058722,0.0034542,0.0096718,0.012435,0.0048359,0.0048359,0.01658,0.0079447,0.0082902,0.011399,0.0031088,0.0069085,0.0031088,0.013472,0.0075993,0.01209,0.01209,0.010017,0.0075993,0.0051813,0.051813,0.0075993,0.01658,0.0044905,0.0072539,0.0044905,0.0093264,0.010017,0.021416,0.0075993,0.0058722,0.0048359,0.0041451,0.008981,0.0096718,0.0096718,0.0075993,0.010017,0.010017,0.013817,0.0079447,0.024525,0.01658,0.0058722,0.0031088,0.0044905,0.0051813,0.0093264,0.0044905,0.0048359,0.017271,0.0069085,0.010708,0.0055268,0.015889,0.0037997,0.015544,0.0075993,0.0048359,0.0041451,0.0075993,0.0031088,0.0044905,0.02418,0.011744,0.015544,0.0031088,0.0020725,0.047323,0.0069085,0.006563,0.0027634,0.010708,0.0044905,0.0093264,0.0096718,0.018998
0.019324,0.0048309,0.0048309,0.0096618,0.014493,0.024155,0.0048309,0.0048309,0.0096618,0,0.0096618,0.0048309,0.0048309,0,0.028986,0.014493,0.0096618,0.028986,0.0048309,0,0.0048309,0.024155,0.0096618,0.019324,0.0048309,0.014493,0.014493,0.0048309,0,0,0.0048309,0,0,0.0048309,0.024155,0,0.038647,0.0096618,0.0096618,0.0096618,0.0096618,0.0048309,0,0.019324,0,0.014493,0,0.014493,0.019324,0,0,0,0.0096618,0.0048309,0.0048309,0,0,0,0.014493,0.024155,0.019324,0.067633,0.024155,0.0048309,0.0048309,0.0048309,0.014493,0.014493,0.0096618,0.014493,0.014493,0.019324,0.0096618,0.0048309,0.019324,0,0,0.019324,0.024155,0.014493,0,0.038647,0,0.0048309,0.0096618,0,0.019324,0,0.0096618,0,0.024155,0.0096618,0.0048309,0.0096618,0,0.0048309,0,0.0048309,0.014493,0
0.0099157,0.010659,0.012395,0.0081805,0.0076847,0.0057015,0.0019831,0.0094199,0.01884,0.0096678,0.021567,0.0054536,0.0064452,0.0054536,0.0076847,0.011403,0.0074368,0.0059494,0.0066931,0.0024789,0.0034705,0.006941,0.019584,0.010659,0.0034705,0.0094199,0.0096678,0.0099157,0.0039663,0.0096678,0.0054536,0.010907,0.0096678,0.0081805,0.00471,0.0052058,0.0066931,0.0049579,0.015865,0.02355,0.0074368,0.0037184,0.0081805,0.031978,0.0059494,0.013138,0.0017353,0.006941,0.0094199,0.0071889,0.011899,0.036936,0.0054536,0.019088,0.014378,0.0079326,0.015121,0.002231,0.010164,0.0066931,0.009172,0.015121,0.009172,0.0059494,0.0094199,0.02231,0.0084284,0.0049579,0.0057015,0.010412,0.013634,0.009172,0.0086763,0.0024789,0.0042142,0.0044621,0.0042142,0.014378,0.010412,0.006941,0.0052058,0.011899,0.0094199,0.011899,0.0086763,0.015865,0.0086763,0.012395,0.020327,0.0079326,0.0066931,0.04239,0.0086763,0.0099157,0.0066931,0.0089241,0.012147,0.0084284,0.015617,0.0064452
0.021898,0,0.036496,0,0.0072993,0.0072993,0.021898,0.0072993,0,0,0.0072993,0,0,0.0072993,0,0.0072993,0.021898,0.014599,0.014599,0,0,0,0,0.0072993,0.0072993,0.021898,0.021898,0.0072993,0,0.014599,0.014599,0,0.0072993,0.0072993,0.021898,0.029197,0.0072993,0,0.021898,0.014599,0,0.021898,0.014599,0.021898,0,0.021898,0,0.0072993,0.0072993,0.0072993,0.0072993,0.021898,0.029197,0.014599,0.021898,0,0,0,0,0,0.021898,0.0072993,0,0.021898,0.021898,0,0.014599,0.029197,0.014599,0.014599,0.0072993,0,0,0.0072993,0,0.0072993,0.014599,0,0.014599,0.014599,0,0.021898,0,0.014599,0,0,0.094891,0,0,0,0.0072993,0.029197,0.014599,0.014599,0,0,0,0,0.0072993,0.0072993
0.0050251,0.0050251,0.01005,0.035176,0.040201,0.015075,0.020101,0.025126,0.0050251,0.035176,0.0050251,0,0.015075,0,0.015075,0.015075,0.035176,0.020101,0.01005,0,0.020101,0.015075,0,0.015075,0.01005,0,0.020101,0,0.01005,0.035176,0.0050251,0.015075,0.030151,0,0.015075,0,0,0.0050251,0,0.0050251,0.0050251,0,0.020101,0,0.0050251,0.01005,0,0.015075,0.0050251,0.01005,0.0050251,0.015075,0.025126,0.015075,0.01005,0,0,0,0.0050251,0,0.0050251,0.015075,0.01005,0.01005,0.015075,0,0,0.015075,0,0,0.01005,0.015075,0,0.01005,0.01005,0.01005,0.0050251,0.020101,0.015075,0,0.020101,0,0,0.015075,0,0,0.020101,0.025126,0.0050251,0.0050251,0,0.020101,0,0.015075,0,0,0,0.01005,0.015075,0.025126
0.0095465,0.0047733,0.016706,0.00358,0.013126,0.00358,0.0095465,0.0059666,0.01432,0.0023866,0.015513,0.00358,0.0059666,0.0011933,0.0059666,0.00358,0.01074,0.0047733,0.063246,0,0.0059666,0.00358,0.02864,0.01074,0.00358,0.0047733,0.013126,0.00358,0.0095465,0.013126,0.0071599,0.0059666,0.011933,0.0083532,0.0047733,0.011933,0.0095465,0.0023866,0.01074,0.0095465,0.016706,0.0095465,0.011933,0.023866,0.0047733,0.0023866,0.02506,0.0071599,0.0047733,0.00358,0.041766,0.01074,0.0071599,0.01074,0.013126,0.0023866,0.01074,0.0071599,0.01074,0.0047733,0.00358,0.027446,0.015513,0.00358,0.015513,0.02148,0.0059666,0.013126,0.01074,0.0047733,0.011933,0.0011933,0.0047733,0.0011933,0.0023866,0.0071599,0.0071599,0.0023866,0.0071599,0.0083532,0.0047733,0.019093,0.0095465,0.020286,0.0011933,0.0071599,0.013126,0.022673,0.036993,0.011933,0.01074,0.013126,0.00358,0.0059666,0.0095465,0.0095465,0.0023866,0.0011933,0.01074,0.0047733
0,0.0044248,0.017699,0.035398,0.0088496,0,0,0.017699,0.0088496,0.0088496,0,0.017699,0.0088496,0.0044248,0.017699,0.013274,0.0044248,0.017699,0,0,0,0.0088496,0.017699,0.022124,0.013274,0.026549,0.017699,0,0,0.0044248,0.017699,0.0044248,0,0,0,0.0088496,0.0044248,0,0.0044248,0.0044248,0,0.013274,0,0.013274,0.013274,0.0044248,0,0.013274,0.0088496,0.022124,0.013274,0,0.0088496,0.0088496,0.039823,0.0088496,0.0088496,0.0044248,0.0044248,0,0.0088496,0.044248,0.017699,0.013274,0.0088496,0.0044248,0.0088496,0.013274,0.0044248,0.017699,0.0088496,0.0044248,0.0044248,0.0044248,0.026549,0.0044248,0,0.0044248,0.017699,0.013274,0,0.022124,0.0044248,0.0088496,0.017699,0.022124,0.013274,0.022124,0.013274,0.022124,0.026549,0.022124,0.0088496,0,0,0.0044248,0.017699,0.0044248,0.0088496,0.0044248
0.022989,0,0.022989,0,0,0.022989,0.034483,0.045977,0.034483,0,0.011494,0.011494,0,0,0,0.022989,0.011494,0.045977,0,0,0,0,0,0,0.011494,0,0,0,0,0.022989,0.011494,0.022989,0,0,0.022989,0.011494,0.022989,0,0.034483,0.011494,0,0,0.011494,0.022989,0,0,0,0.034483,0,0,0,0,0.011494,0.045977,0,0,0,0,0.022989,0.011494,0.011494,0,0,0,0.011494,0.045977,0.011494,0,0,0.011494,0.045977,0,0.034483,0,0.022989,0,0.022989,0,0,0.08046,0.011494,0,0,0,0,0,0,0.011494,0,0,0,0.034483,0,0,0,0,0,0,0,0.022989
0.013423,0.0033557,0.020134,0.0067114,0.0033557,0,0.0067114,0.0067114,0.010067,0,0,0.010067,0.0067114,0,0,0.0067114,0.0033557,0.0067114,0,0,0.010067,0,0.02349,0.02349,0.0067114,0.013423,0.010067,0.0067114,0.010067,0.020134,0,0.0033557,0.0067114,0,0.020134,0.013423,0.010067,0.0067114,0.0033557,0.0067114,0.0033557,0.0067114,0.0067114,0,0,0.0067114,0.0033557,0.016779,0.0067114,0.02349,0.0033557,0.020134,0.016779,0.016779,0.010067,0.013423,0.020134,0.0033557,0.0067114,0.010067,0.010067,0.016779,0.0033557,0.013423,0.0067114,0.0067114,0.010067,0.0067114,0.02349,0.0033557,0.0067114,0.0033557,0,0.0033557,0.013423,0,0.0033557,0.0067114,0.013423,0.0033557,0.010067,0.013423,0.010067,0.026846,0.036913,0.09396,0.013423,0.0067114,0.013423,0.063758,0.010067,0,0,0.0067114,0.010067,0.0067114,0.016779,0.0033557,0.0067114,0.0033557
0.0084034,0.0056022,0.0084034,0.028011,0.0084034,0.0028011,0.014006,0.022409,0.0084034,0,0.0084034,0.0028011,0.028011,0.011204,0.0056022,0.016807,0.016807,0.047619,0,0.0084034,0.0028011,0.028011,0,0.019608,0.0084034,0.0084034,0.030812,0.016807,0.0028011,0.014006,0.011204,0.0084034,0.0056022,0,0.0056022,0.0056022,0.0056022,0,0.0028011,0.0084034,0,0.0084034,0.0084034,0,0.0028011,0.014006,0.0028011,0.014006,0.0084034,0.0028011,0.0028011,0.0056022,0.036415,0.011204,0.0028011,0,0,0.0056022,0.02521,0.014006,0.016807,0,0.0056022,0.019608,0.022409,0.0028011,0.011204,0.0028011,0.0028011,0.02521,0.0056022,0.0028011,0.016807,0.011204,0.047619,0.0028011,0.022409,0,0.0056022,0.0056022,0.0056022,0.014006,0,0.0056022,0,0,0.022409,0.0028011,0.0056022,0.0084034,0.014006,0.0084034,0.0056022,0,0,0.0056022,0.033613,0.0084034,0.011204,0.016807
0.0062893,0.010063,0.008805,0.032704,0.015094,0.0050314,0.037736,0.016352,0.011321,0.0025157,0.0025157,0.0075472,0.013836,0.0025157,0.0062893,0.010063,0.008805,0.023899,0.0050314,0.0037736,0.0037736,0.030189,0.0062893,0.01761,0.0062893,0.0062893,0.023899,0.015094,0.008805,0.013836,0.010063,0.012579,0.0050314,0.0025157,0.008805,0.011321,0.0062893,0.0050314,0.021384,0.0050314,0.0012579,0.0025157,0.0050314,0.0062893,0.0037736,0.025157,0.0012579,0.020126,0.0050314,0.0075472,0.0037736,0.013836,0.016352,0.01761,0.0025157,0,0.0037736,0.0012579,0.020126,0.016352,0.011321,0,0.0050314,0.008805,0.010063,0.0075472,0.011321,0.0062893,0.0062893,0.021384,0.016352,0.0037736,0.008805,0.03522,0.026415,0.0012579,0.0012579,0.008805,0.013836,0.010063,0.0062893,0.01761,0.0062893,0.0050314,0.0037736,0.0025157,0.016352,0.0037736,0.0062893,0.011321,0.015094,0.0075472,0.0075472,0.0037736,0.0037736,0.0037736,0.020126,0.0062893,0.0075472,0.0075472
0.016835,0.006734,0.010101,0.020202,0.003367,0.003367,0.006734,0.020202,0.020202,0,0,0.003367,0.020202,0.010101,0.003367,0.023569,0.016835,0.047138,0,0.006734,0,0.043771,0.006734,0.030303,0,0,0.020202,0.016835,0,0.016835,0.003367,0.013468,0.003367,0,0.013468,0.006734,0.020202,0,0.006734,0.013468,0.006734,0.003367,0.010101,0.016835,0,0.016835,0.003367,0,0.006734,0,0,0,0.013468,0.013468,0,0,0.006734,0,0.026936,0.020202,0.006734,0.006734,0.006734,0.010101,0.006734,0.003367,0.016835,0,0.003367,0.060606,0.016835,0.013468,0.016835,0.003367,0.030303,0.003367,0.010101,0.010101,0.030303,0.013468,0.003367,0.043771,0.003367,0,0,0,0.03367,0,0,0.003367,0,0.006734,0.003367,0,0.003367,0,0.013468,0.010101,0.006734,0
0.051613,0.016129,0,0.025806,0.0096774,0.0032258,0.019355,0.0064516,0.022581,0,0.0064516,0.016129,0.032258,0.029032,0.041935,0.0096774,0.0096774,0.016129,0,0.041935,0.0032258,0.032258,0,0.0096774,0,0,0.016129,0.032258,0,0.035484,0.0032258,0.0032258,0.0032258,0.0032258,0.016129,0,0.0096774,0,0.016129,0.0096774,0.0032258,0,0,0,0,0.025806,0,0.0064516,0.0064516,0.0032258,0.0032258,0,0.022581,0.019355,0,0.0064516,0,0,0.0096774,0.0096774,0.012903,0.0032258,0.0032258,0.0032258,0.0032258,0,0.016129,0.0064516,0,0.048387,0.016129,0.025806,0.0096774,0.0064516,0.022581,0.016129,0,0.0064516,0.012903,0.0064516,0.0064516,0.0096774,0,0.0032258,0,0.0032258,0.0064516,0,0.0064516,0,0.0064516,0,0.045161,0.0032258,0,0,0.0064516,0.016129,0,0
0.016,0.008,0,0.016,0.04,0.008,0,0.016,0.008,0,0.008,0.008,0.016,0.016,0,0,0.024,0.056,0,0,0,0.024,0,0.008,0.008,0.008,0.024,0.016,0.008,0.008,0,0,0.008,0,0.016,0.008,0.024,0,0.048,0,0,0,0.008,0,0,0.016,0.008,0.024,0.024,0,0,0.016,0.008,0,0,0,0,0,0.048,0.016,0.016,0,0.016,0,0.056,0.008,0.016,0,0,0,0.032,0,0.008,0,0,0,0.016,0,0,0.04,0.008,0.024,0,0,0,0,0.024,0,0,0,0.032,0.008,0.024,0,0,0,0.024,0.008,0.016,0.008
0.0075758,0.0075758,0.0075758,0,0.0075758,0.0075758,0.0075758,0.015152,0.037879,0,0.037879,0,0.022727,0.0075758,0.0075758,0,0.015152,0,0.015152,0,0.015152,0,0.022727,0,0,0.0075758,0,0.015152,0,0.0075758,0,0,0.015152,0.015152,0.0075758,0.015152,0.0075758,0,0.037879,0,0.0075758,0.0075758,0.022727,0.015152,0,0,0.0075758,0,0.015152,0.015152,0.0075758,0.015152,0.0075758,0.0075758,0,0,0.0075758,0,0,0.022727,0.0075758,0,0.015152,0.0075758,0.015152,0.0075758,0.022727,0,0.022727,0.030303,0.030303,0,0.0075758,0.0075758,0,0.0075758,0.05303,0.045455,0,0.0075758,0,0,0.0075758,0,0,0,0.045455,0.015152,0.0075758,0.015152,0.015152,0.015152,0.022727,0,0,0.0075758,0.0075758,0.015152,0.0075758,0
0.0075188,0.022556,0.033835,0.015038,0.0037594,0.0037594,0.0037594,0.022556,0.0037594,0.0075188,0,0.011278,0.0075188,0.0037594,0.0075188,0.0075188,0.011278,0.015038,0,0,0,0.018797,0,0.0075188,0,0.0037594,0.015038,0,0.0075188,0,0.0075188,0.011278,0.0075188,0.0075188,0.0037594,0,0,0.0037594,0,0.015038,0.0075188,0.011278,0.015038,0.011278,0.018797,0.033835,0.0037594,0.018797,0,0.0037594,0,0.018797,0.0037594,0.011278,0.011278,0.0037594,0.030075,0.0037594,0.041353,0.011278,0.0075188,0,0.0075188,0.015038,0.026316,0.0037594,0.0075188,0.0075188,0.011278,0.0075188,0.0037594,0.0075188,0.0075188,0.011278,0.011278,0.0037594,0.018797,0.0075188,0.041353,0.0037594,0.018797,0,0.015038,0.018797,0.0037594,0,0.056391,0.0037594,0.011278,0.018797,0.015038,0.022556,0.0037594,0,0,0.0075188,0.011278,0,0.0075188,0.018797
0.0090293,0.020316,0.006772,0.0090293,0.0022573,0.006772,0.013544,0.006772,0.0090293,0.006772,0.0090293,0.013544,0.011287,0,0.015801,0.015801,0.0045147,0.024831,0.006772,0,0.015801,0.0090293,0.015801,0.011287,0.0022573,0.006772,0.024831,0.006772,0.0022573,0.006772,0.0045147,0,0.0090293,0.018059,0.0045147,0.0045147,0.006772,0.0022573,0.0045147,0.006772,0.006772,0.0022573,0.0022573,0.0090293,0.0022573,0.0090293,0.0090293,0.006772,0.0022573,0.0022573,0.006772,0.027088,0.011287,0.006772,0.027088,0.0045147,0.020316,0.006772,0.018059,0.013544,0.006772,0.038375,0.0022573,0.006772,0.013544,0.0090293,0.015801,0.006772,0.011287,0.0022573,0.013544,0.011287,0.0045147,0.0022573,0.029345,0.0090293,0.0045147,0.006772,0.027088,0.0045147,0.011287,0.006772,0.0090293,0.006772,0.0022573,0.029345,0.0090293,0.011287,0.0022573,0.013544,0.0090293,0.024831,0.011287,0.0090293,0.0022573,0.0022573,0.020316,0,0.0090293,0.036117
0.0053476,0.0053476,0.018717,0.0080214,0.018717,0.0026738,0.0026738,0.013369,0.02139,0.029412,0.0026738,0.0026738,0.0026738,0.0026738,0.0053476,0.013369,0.013369,0.018717,0.013369,0.0053476,0.010695,0.010695,0.0026738,0.0080214,0.013369,0.010695,0.016043,0.0053476,0.0053476,0.018717,0.0053476,0.010695,0.024064,0.0053476,0.0026738,0.010695,0.026738,0.0080214,0.013369,0.0026738,0.013369,0.0026738,0.0053476,0,0.010695,0.02139,0.0053476,0.0053476,0.0026738,0.0080214,0.0053476,0.013369,0.0080214,0.010695,0.013369,0.0026738,0.016043,0,0.0053476,0.0053476,0.010695,0.0053476,0.026738,0.0053476,0.0080214,0.026738,0.016043,0.0026738,0.0053476,0.0053476,0.010695,0.013369,0.010695,0.0026738,0.013369,0.010695,0.0053476,0.0080214,0.018717,0.013369,0.010695,0.0026738,0.0026738,0.0053476,0.0026738,0.02139,0.016043,0.018717,0.0026738,0.0080214,0.0053476,0.026738,0.0080214,0.02139,0.0026738,0.0053476,0.016043,0.0026738,0.010695,0.018717
0.011429,0,0.014286,0.02,0.0085714,0.0028571,0.014286,0.017143,0.0057143,0,0,0.0085714,0.011429,0.0057143,0.0028571,0.017143,0.0085714,0.022857,0,0,0,0.022857,0,0.011429,0.0057143,0.022857,0.0085714,0.0057143,0.0028571,0,0.011429,0.011429,0.0085714,0.0085714,0.014286,0.0085714,0.0085714,0,0.014286,0.042857,0.0085714,0.014286,0.011429,0.011429,0.0057143,0.017143,0.0028571,0.011429,0.0028571,0.011429,0,0.025714,0.02,0.0057143,0.0057143,0.0057143,0.011429,0.0057143,0.02,0.017143,0,0.0028571,0.0028571,0.017143,0.0028571,0.0085714,0.011429,0,0.02,0.028571,0.014286,0.0085714,0.0085714,0.011429,0.02,0,0.0085714,0.025714,0.025714,0.0028571,0,0.011429,0.0028571,0.0028571,0.0057143,0.017143,0.045714,0,0,0.011429,0.011429,0.0085714,0.011429,0,0.0057143,0.0057143,0.02,0.0085714,0.0085714,0.0085714
0.10588,0,0,0,0.011765,0.011765,0.023529,0,0.023529,0,0.058824,0.011765,0,0.035294,0.058824,0.011765,0,0.011765,0,0,0,0,0,0,0,0,0,0,0,0.070588,0,0,0,0.011765,0.023529,0,0.011765,0,0.035294,0.011765,0.035294,0,0,0,0,0,0,0,0,0,0,0,0.047059,0.023529,0,0,0,0,0,0,0,0,0.011765,0,0.011765,0.011765,0,0,0,0.011765,0.082353,0,0,0.011765,0.023529,0.023529,0,0.011765,0,0.023529,0,0.011765,0,0,0,0,0.011765,0,0.023529,0,0,0,0.047059,0,0,0,0.023529,0.023529,0,0
0.0093458,0.0059473,0.0050977,0.0033985,0.014444,0,0.013594,0.0025489,0.017842,0.00084962,0.076466,0.0067969,0.0033985,0.0076466,0.017842,0.010195,0.019541,0.0042481,0.0050977,0.0016992,0.0050977,0.00084962,0.010195,0.0025489,0.0025489,0.0050977,0.0016992,0.0067969,0.0033985,0.017842,0.0016992,0.055225,0.013594,0.0059473,0.0076466,0.014444,0.0084962,0.0016992,0.032285,0.024639,0.0067969,0.0050977,0.0025489,0.015293,0.0025489,0.0084962,0.026338,0.012744,0.0025489,0.0042481,0.0033985,0.0042481,0.014444,0.029737,0.012744,0,0.0050977,0.031436,0.0016992,0.0025489,0.011895,0.010195,0.016992,0.0084962,0.018692,0.011895,0.0084962,0.0016992,0.0016992,0.018692,0.030586,0.0033985,0.0076466,0.014444,0.0076466,0.0025489,0.0016992,0.018692,0.0084962,0.011045,0.0016992,0.0016992,0.0025489,0.0025489,0.00084962,0,0.0067969,0.0076466,0.061172,0.00084962,0,0.02124,0.014444,0.00084962,0,0.0016992,0.011045,0.0025489,0.0059473,0.0016992
0.055556,0.0055556,0,0,0,0,0.011111,0,0.027778,0,0.022222,0,0.0055556,0,0.022222,0.011111,0.0055556,0.0055556,0.033333,0.0055556,0.016667,0,0.05,0,0,0.0055556,0,0.0055556,0.0055556,0.061111,0,0,0.0055556,0,0,0,0.011111,0.0055556,0.033333,0,0.038889,0,0,0,0,0,0,0,0,0,0,0,0.027778,0.022222,0.05,0,0.011111,0,0,0,0,0,0.0055556,0,0,0.0055556,0.016667,0.016667,0,0.027778,0.033333,0,0,0.016667,0.027778,0.033333,0,0.0055556,0,0.011111,0.011111,0,0,0.0055556,0,0,0,0,0.18333,0,0,0,0.016667,0.011111,0,0,0.0055556,0,0.0055556,0
0.016194,0.0040486,0,0.0040486,0.02834,0.0080972,0.016194,0.0040486,0.016194,0,0.032389,0.0040486,0,0.0040486,0.032389,0.0080972,0.032389,0.02834,0.0040486,0.012146,0.0080972,0.0040486,0.072874,0,0,0.0040486,0,0.0080972,0,0.044534,0,0,0.0080972,0.012146,0.012146,0,0.020243,0,0.020243,0.0080972,0.024291,0,0.0040486,0,0,0,0,0.0040486,0,0,0,0,0.036437,0.032389,0.024291,0,0,0,0,0,0.016194,0,0.020243,0.0040486,0.0040486,0.0040486,0.012146,0.0040486,0.0040486,0.032389,0.02834,0.0080972,0.016194,0.024291,0.012146,0.024291,0,0.020243,0.012146,0.016194,0,0.012146,0,0,0,0,0.0080972,0.0040486,0.0080972,0,0,0.0040486,0.020243,0,0,0,0.040486,0.0040486,0.032389,0
0.011516,0.0044786,0.03007,0.012796,0.0051184,0.0019194,0.03007,0.015355,0.0083173,0.0006398,0.051823,0.0019194,0.0019194,0.0025592,0.0044786,0.012796,0.006398,0.019194,0.0025592,0.0012796,0.0044786,0.0038388,0.0076775,0.0044786,0.0057582,0.010237,0.003199,0.0095969,0.0038388,0.0076775,0.0070377,0.022393,0.003199,0.0012796,0.0044786,0.0044786,0.0076775,0.003199,0.006398,0.003199,0.0070377,0.0095969,0.003199,0.036468,0.0057582,0.0012796,0.0089571,0.0038388,0.0070377,0.0012796,0.0006398,0.0095969,0.0051184,0.0095969,0.0076775,0.0012796,0.0070377,0.076775,0.0044786,0.003199,0.0083173,0.0012796,0.006398,0.006398,0.014715,0.0083173,0.0089571,0.0006398,0.003199,0.018554,0.0076775,0.0076775,0.0083173,0.037748,0.014715,0.0057582,0.0070377,0.012796,0.003199,0.0083173,0.0025592,0.0070377,0.0012796,0.026232,0.0006398,0.022393,0.020473,0.0006398,0.066539,0.048624,0.0019194,0.018554,0.006398,0.0006398,0.0012796,0.0006398,0.0076775,0.003199,0.010877,0.003199
0.010753,0.010753,0,0,0.021505,0,0.032258,0.032258,0.010753,0,0,0,0.010753,0,0,0,0.021505,0.032258,0,0,0,0.043011,0,0,0,0.032258,0,0.010753,0.010753,0.021505,0,0,0,0.021505,0.032258,0,0,0,0,0.032258,0,0,0.021505,0,0,0,0,0.010753,0.010753,0.010753,0,0,0.021505,0.021505,0.010753,0,0,0.010753,0.010753,0,0.010753,0,0.010753,0.010753,0.032258,0.010753,0,0,0.010753,0.053763,0,0.010753,0.010753,0.021505,0.032258,0.010753,0.010753,0.010753,0.010753,0.021505,0,0.010753,0,0,0,0,0.10753,0,0,0,0.010753,0.021505,0.010753,0,0,0.010753,0,0,0,0.032258
0.014286,0,0.028571,0,0.042857,0,0,0,0,0,0.028571,0,0,0,0,0.014286,0.042857,0,0,0,0.014286,0,0,0,0,0.028571,0.014286,0,0,0.014286,0.014286,0,0,0.014286,0,0,0.014286,0,0,0,0,0,0.028571,0,0.028571,0.028571,0,0.014286,0,0,0.014286,0.1,0.042857,0.014286,0,0,0.014286,0,0,0,0.014286,0,0.057143,0.014286,0,0.028571,0.028571,0,0,0,0,0,0.014286,0,0.028571,0,0,0.028571,0,0.028571,0,0,0,0,0,0,0.057143,0,0,0,0,0.028571,0.042857,0,0,0,0.014286,0,0.028571,0.014286
0.01626,0,0,0,0.04878,0,0.02439,0.03252,0.03252,0,0.01626,0.03252,0.01626,0.01626,0.03252,0.0081301,0.03252,0.0081301,0,0.02439,0.0081301,0.0081301,0,0,0,0,0.0081301,0,0,0.01626,0,0.01626,0.0081301,0.0081301,0.03252,0,0.0081301,0,0.01626,0,0.0081301,0,0.0081301,0,0,0.01626,0,0.01626,0,0,0,0,0,0.02439,0,0,0.0081301,0.0081301,0.0081301,0,0.02439,0,0.01626,0,0.065041,0.01626,0,0.0081301,0,0.0081301,0.02439,0,0.02439,0.0081301,0,0,0,0.0081301,0,0.01626,0,0,0,0,0,0,0.081301,0.02439,0.02439,0.01626,0,0,0.0081301,0.0081301,0,0.01626,0.01626,0.0081301,0.0081301,0
0,0,0.078431,0.019608,0.078431,0,0,0.019608,0,0,0,0,0,0,0,0,0.078431,0.019608,0,0,0.019608,0,0,0,0,0.019608,0,0,0,0,0.019608,0,0.019608,0,0,0.019608,0,0,0,0,0,0,0.019608,0,0.019608,0,0.039216,0,0,0.019608,0.019608,0,0,0.019608,0,0,0,0.019608,0,0,0,0,0.019608,0.039216,0.13725,0.019608,0,0,0,0,0.019608,0,0,0,0,0,0.019608,0,0,0,0,0.019608,0,0,0,0,0.15686,0,0,0,0,0.019608,0,0,0,0,0,0,0,0
0.0063127,0.013368,0.013368,0.016339,0.01114,0.0037133,0.012997,0.010026,0.0063127,0.01114,0.012625,0.0051987,0.00557,0.003342,0.006684,0.007798,0.0092833,0.014853,0.0096547,0.0018567,0.006684,0.013739,0.017081,0.011883,0.00557,0.0074267,0.016339,0.0074267,0.0040847,0.0074267,0.0070553,0.012625,0.0037133,0.007798,0.00557,0.0070553,0.0029707,0.0025993,0.0070553,0.015225,0.0085407,0.0051987,0.0051987,0.015967,0.0040847,0.00557,0.0092833,0.0048273,0.0063127,0.0070553,0.012997,0.028964,0.0063127,0.010397,0.018938,0.0025993,0.023394,0.0085407,0.0096547,0.0085407,0.0051987,0.026736,0.00557,0.008912,0.023023,0.012254,0.0081693,0.010769,0.0081693,0.0051987,0.0063127,0.011511,0.00557,0.0092833,0.011883,0.0048273,0.007798,0.013368,0.0092833,0.0059413,0.010026,0.014482,0.008912,0.022651,0.006684,0.029335,0.0096547,0.008912,0.013368,0.019681,0.013368,0.018938,0.006684,0.011511,0.0081693,0.004456,0.01114,0.006684,0.0051987,0.017081
