http://www.horse-chiropractor.com/animal-chiropractor/equine_chiropractor.jpg
http://farm4.static.flickr.com/3142/2898261629_3af75a6fc0.jpg
http://farm4.static.flickr.com/3091/3162253667_1ddaf0a06f.jpg
http://www.bancoimagenes.com/cd738/cd738f155_a.jpg
http://static.andaluciaimagen.com/Burro-como-animal-de-transporte-51334.jpg
http://farm1.static.flickr.com/30/62940360_e2bc08a608.jpg
http://www.engormix.com/images/s_articles/eficiencia03.jpg
http://static.flickr.com/41/124541184_97729d713d.jpg
http://perso.wanadoo.es/josanar620404/aAa.jpg
http://farm4.static.flickr.com/3224/3107362693_994b7545f7.jpg
http://farm1.static.flickr.com/79/252181133_3f5220e82a.jpg
http://farm3.static.flickr.com/2368/1565633048_eda7291949.jpg
http://www.teambuilding-horses.com/images/SCS%20web%20pics/RIclass.jpg
http://farm4.static.flickr.com/3380/3218021686_df5c7dc70e.jpg
http://farm2.static.flickr.com/1256/979001376_aaf2115324.jpg
http://farm4.static.flickr.com/3011/2898257001_502f77e5e7.jpg
http://farm3.static.flickr.com/2043/2271755015_5e6075274e.jpg
http://farm4.static.flickr.com/3165/2363812771_81d2fb3709.jpg
http://4.bp.blogspot.com/_4VQQ3cI4oFc/R72-om2quyI/AAAAAAAAAaQ/8L7RYzlLZWs/s320/bueyes.jpg
http://3.bp.blogspot.com/_Bf0CoMAdCbE/SbQt0R7ju0I/AAAAAAAAAZs/b9r7o67uk7c/s320/ATT0097211.jpg
http://farm1.static.flickr.com/192/463037922_115269f49f.jpg
http://farm2.static.flickr.com/1372/1368905783_872166f25c.jpg
http://www.esxm.com.cn/Files/adminfiles/esxm/200804/02%u6BCD%u6C34%u725B.gif
http://farm4.static.flickr.com/3053/2621650825_a262b14a6b.jpg
http://www.ruralhistory.org/assets/interface_assets/windmill_assets/photos/work/work_animals/d71_29_008.jpg
http://farm1.static.flickr.com/82/275226096_8876deb8d9.jpg
http://static.flickr.com/43/124541781_aaf807ba51.jpg
http://junglewalk.com/animal-pictures/628/Horse-4837.jpg
http://farm1.static.flickr.com/134/379910025_37dbc81471.jpg
http://www.catie.ac.cr/BancoMedios/Imagenes/bol_feb08_gama6.jpg
http://farm3.static.flickr.com/2357/2069725614_1e74c073ec.jpg
http://farm1.static.flickr.com/157/331374723_5d2b8d67cf.jpg
http://static.flickr.com/1183/1442578233_5818d4ff6a.jpg
http://farm1.static.flickr.com/235/460317629_5adbb575f6.jpg
http://farm4.static.flickr.com/3455/3226630734_e1fa2138d4.jpg
http://farm1.static.flickr.com/223/469958298_3a0b2da94e.jpg
http://www.portaleureka.com/revista/images/stories/articulos/naturaleza/elefant2.jpg
http://www.hartquarterhorses.com/files/images/animals%2010%20(2).jpg
http://www.masseriacoppola.it/dap/images/p002_1_02.jpg
http://www.curiositis.com/wp-content/uploads/animales/Burro.jpg
http://farm3.static.flickr.com/2299/2256614248_8cfb4a054b.jpg
http://static.flickr.com/2036/1572028598_8e0454e6c7.jpg
http://farm4.static.flickr.com/3258/2567870235_571c1cb896.jpg
http://imgsrc.baidu.com/baike/pic/item/ac2fc3c4de7db5de39db4999.jpg
http://farm3.static.flickr.com/2182/2184029888_c3598ac2f7.jpg
http://static.flickr.com/1057/1432442730_d4f8d9b2ff.jpg
http://www.genelite.net/graphics/animal2f.jpg
http://farm2.static.flickr.com/1403/582250098_f6207adb49.jpg
http://farm2.static.flickr.com/1432/723994206_729be5c157.jpg
http://farm1.static.flickr.com/139/377134786_c4eafab97d.jpg
http://farm2.static.flickr.com/1336/1002128627_8f1cb237bf.jpg
http://farm3.static.flickr.com/2316/2367058930_b96df09c20.jpg
http://farm1.static.flickr.com/232/550101422_8646370424.jpg
http://farm1.static.flickr.com/197/460932860_ebcd956e21.jpg
http://www.johnnahaskellphotos.com/gallery/Maine_Scenes/Animals/gallery_Work%20Horse2.jpg
http://farm4.static.flickr.com/3048/2892448696_0f6b6b3f72.jpg
http://farm4.static.flickr.com/3047/3069353275_55c0126052.jpg
http://i.pbase.com/g3/40/826540/2/107991583.7h9N8oSJ.jpg
http://farm4.static.flickr.com/3127/3163085492_37ff20fcc5.jpg
http://farm3.static.flickr.com/2398/2256614244_3f3d2c2881.jpg
http://www.camelidos.com.uy/imagenes/de%20carga.jpg
http://farm4.static.flickr.com/3124/3092330152_a6179be1af.jpg
http://farm4.static.flickr.com/3106/3237252853_365261c286.jpg
http://img364.imageshack.us/img364/4536/65burro24jk.jpg
http://www.mariapinto.es/imatec/imagenes/entorno_rural/burro.jpg
http://www.cs.cmu.edu/~xc/images/favorite_animal_picture.jpg
http://ecosofia.org/files/elefantes.jpg
http://farm4.static.flickr.com/3143/3079547507_cd07f603c9.jpg
http://farm1.static.flickr.com/65/170499676_c7fb203f0c.jpg
http://farm3.static.flickr.com/2046/2468340339_01ebdff82d.jpg
http://farm1.static.flickr.com/218/460321019_00c7ca84a0.jpg
http://farm4.static.flickr.com/3128/2691529037_1900f42da4.jpg
http://www.neddi.org/wp-content/uploads/2008/10/heather-portrait-small.jpg
http://farm3.static.flickr.com/2294/2074885451_6eeee4b240.jpg
http://static.flickr.com/3182/2581467968_96ec2a96f7.jpg
http://farm4.static.flickr.com/3542/3445751703_478909cc0a.jpg
http://farm4.static.flickr.com/3186/2568912231_e3a56079b7.jpg
http://farm1.static.flickr.com/12/14193211_9aff4f7b01.jpg
http://1862.img.pp.sohu.com.cn/images/blog/2009/3/23/17/24/120dd753531g215.jpg
http://www.nuevodiarioweb.com.ar/Uploads/2009124/imagenes/Size2/cb305cdd-7ee9-43af-99ca-acd565c5668b.jpg
http://farm1.static.flickr.com/210/523649759_baf12c4807.jpg
http://farm1.static.flickr.com/189/463038576_9e91e39c4c.jpg
http://4.bp.blogspot.com/_EXQmnFDC-XU/R_LTklzhS-I/AAAAAAAAANg/rC_JqD9wnjU/s320/c_decreto_06.JPG
http://farm4.static.flickr.com/3254/3149183872_524d615489.jpg
http://farm4.static.flickr.com/3109/3213204325_57ee490c2d.jpg
http://www.euskonews.com/0279zbk/argazkiak/gaia27904_03.jpg
http://camyna.com/wp-content/uploads/2008/04/screenshot532.jpg
http://farm4.static.flickr.com/3072/2839977857_2b22122430.jpg
http://farm1.static.flickr.com/154/395427233_ba80b7a63d.jpg
http://www.xavifernandezviatges.com/blog/wp-content/2009/03/bufalo-theodore-roosevel-n-p.jpg
http://www.loomisbasinlargeanimal.com/reproduction.jpg
http://farm3.static.flickr.com/2092/2256614236_e5c1c0b9e4.jpg
http://www.galeon.com/lagurulla/burru.jpg
http://www.ellitoral.com/blogs/mascotas/wp-content/uploads/2007/10/litoral.jpg
http://www.freewebs.com/ponyscriaderomawill/shetland1.JPG
http://img0.liveinternet.ru/images/attach/b/2/0/5/5992_Wojtek_KwiatkowskiShagya.jpg
http://farm4.static.flickr.com/3585/3425138426_bf022938da.jpg
http://farm1.static.flickr.com/40/108466971_52ba3cacdb.jpg
http://www.siguaonline.com/Macho.jpg
http://farm4.static.flickr.com/3119/2905376815_f9a9c50636.jpg
http://farm1.static.flickr.com/94/253850067_17c8038c13.jpg
http://english.xsm.cn/work/animal/tanimal3.jpg
http://www.interempresas.net/FotosArtProductos/P25510.jpg
http://farm1.static.flickr.com/190/463042247_aee8e72e96.jpg
http://farm4.static.flickr.com/3036/3401275955_b703e56291.jpg
http://farm1.static.flickr.com/227/463038544_2be861d120.jpg
http://telecentros1.inictel.net/gallery2/main.php?g2_view=core.DownloadItem&g2_itemId=7429&g2_serialNumber=2
http://static.flickr.com/2399/2596323284_91e9b2a01a.jpg
http://www.ranchoinmaculada.com/sitebuilder/images/torosfight-420x218.jpg
http://farm3.static.flickr.com/2177/1809462686_e5d7d6eb09.jpg
http://www.clarin.com/diario/2006/10/28/um/thumb/salta2.jpg
